<?xml version="1.0" standalone="no"?>
<!DOCTYPE svg PUBLIC "-//W3C//DTD SVG 1.1//EN" "http://www.w3.org/Graphics/SVG/1.1/DTD/svg11.dtd" >
<svg xmlns="http://www.w3.org/2000/svg" xmlns:xlink="http://www.w3.org/1999/xlink" version="1.1">
<metadata></metadata>
<defs>
<font id="futuracondensed_medium" horiz-adv-x="848" >
<font-face units-per-em="2048" ascent="1638" descent="-410" />
<missing-glyph horiz-adv-x="424" />
<glyph horiz-adv-x="0" />
<glyph unicode="&#xd;" horiz-adv-x="0" />
<glyph horiz-adv-x="0" />
<glyph horiz-adv-x="0" />
<glyph horiz-adv-x="0" />
<glyph unicode="&#x9;" horiz-adv-x="424" />
<glyph horiz-adv-x="0" />
<glyph unicode=" "  horiz-adv-x="424" />
<glyph unicode="&#x09;" horiz-adv-x="424" />
<glyph unicode="&#xa0;" horiz-adv-x="424" />
<glyph unicode="!" horiz-adv-x="571" d="M162 109q0 51 36 86q37 36 89 36q50 0 86 -36t36 -87t-36 -87q-38 -35 -88 -35q-49 0 -87 35q-36 36 -36 88zM185 371v1173h202v-1173h-202z" />
<glyph unicode="&#x22;" horiz-adv-x="773" d="M93 1544h233l-43 -605h-147zM448 1544h233l-43 -605h-147z" />
<glyph unicode="#" d="M4 494v172h168l29 242h-143v172h165l57 464h163l-57 -464h130l58 464h164l-57 -464h162v-172h-183l-30 -242h142v-172h-164l-60 -494h-165l61 494h-131l-60 -494h-164l61 494h-146zM335 666h131l29 242h-131z" />
<glyph unicode="$" d="M64 1168q0 172 84 279q83 106 228 116v137h91v-137q129 -14 198 -68q69 -53 101 -163l-158 -78q-37 145 -178 145q-173 0 -173 -214q0 -101 43 -156q38 -49 206 -160q171 -112 225 -196q53 -86 53 -245q0 -248 -112 -357q-62 -59 -205 -85v-138h-91v138q-128 14 -193 65 q-65 52 -108 174l169 82q26 -77 65 -107t112 -30q165 0 165 231q0 106 -35 156q-35 51 -173 138q-180 113 -234 191q-80 110 -80 282z" />
<glyph unicode="%" horiz-adv-x="1187" d="M74 1184q0 189 52 277t166 88q115 0 169.5 -89.5t54.5 -279.5q0 -362 -224 -362q-113 0 -165.5 88.5t-52.5 277.5zM147 0l766 1544h127l-766 -1544h-127zM213 1182q0 -135 18 -189q19 -54 64 -54t65 56.5t20 184.5q0 131 -20 188t-65 57t-64 -54q-18 -54 -18 -189z M676 340q0 364 217 364q220 0 220 -369q0 -357 -219 -357q-112 0 -165 87.5t-53 274.5zM815 339q0 -135 18 -189q18 -53 62 -53q84 0 84 239q0 130 -19.5 187.5t-64.5 57.5t-63 -54q-17 -59 -17 -188z" />
<glyph unicode="&#x26;" horiz-adv-x="1051" d="M93 366q0 104 48 196q48 93 167 215q-124 196 -124 367q0 127 84 210q85 82 216 82q132 0 211 -76q80 -77 80 -200q0 -105 -49 -190q-23 -42 -68 -97.5t-114 -124.5l204 -334l126 179l132 -105l-165 -230l165 -258h-228l-73 120q-114 -129 -265 -129q-141 0 -245 110 q-102 111 -102 265zM288 378q0 -90 51 -151q51 -62 123 -62q80 0 157 98l-215 355q-116 -128 -116 -240zM373 1146q0 -77 86 -244q43 45 72 79.5t44 60.5q31 52 31 113q0 57 -30 90.5t-79 33.5q-51 0 -88 -40q-36 -39 -36 -93z" />
<glyph unicode="'" horiz-adv-x="418" d="M93 1544h233l-43 -605h-147z" />
<glyph unicode="(" horiz-adv-x="601" d="M116 642q0 560 190 1081l203 -49q-178 -565 -178 -1016q0 -509 178 -1053l-203 -53q-190 542 -190 1090z" />
<glyph unicode=")" horiz-adv-x="601" d="M93 -399q178 565 178 1015q0 508 -178 1054l203 53q190 -543 190 -1091q0 -559 -190 -1080z" />
<glyph unicode="*" d="M96 1428l27 84l264 -93l-7 280h89l-7 -280l264 93l27 -84l-268 -80l170 -223l-72 -52l-158 231l-159 -231l-72 52l170 223z" />
<glyph unicode="+" d="M63 704v171h275v271h173v-271h274v-171h-274v-273h-173v273h-275z" />
<glyph unicode="," horiz-adv-x="424" d="M29 -347l137 563l166 -49l-198 -543z" />
<glyph unicode="-" horiz-adv-x="364" d="M0 452v156h364v-156h-364z" />
<glyph unicode="." horiz-adv-x="424" d="M89 109q0 51 36 87q37 36 90 36q49 0 85 -37q36 -36 36 -87t-36 -87q-38 -35 -87 -35q-26 0 -48.5 9.5t-39.5 26t-26.5 39t-9.5 48.5z" />
<glyph unicode="/" horiz-adv-x="923" d="M-99 -424l922 2123h161l-920 -2123h-163z" />
<glyph unicode="0" d="M75 772q0 437 79 611q79 180 269 180q176 0 260 -158q90 -167 90 -645q0 -416 -80 -600q-79 -178 -269 -178t-270 179q-79 174 -79 611zM282 770q0 -343 30 -476q31 -132 110 -132q78 0 108 131q31 125 31 467q0 350 -30 484q-30 133 -109 133t-110 -132 q-30 -132 -30 -475z" />
<glyph unicode="1" d="M183 1367v177h352v-1544h-199v1367h-153z" />
<glyph unicode="2" d="M77 0q17 38 71 151t147 305q79 168 132 285t80 192q54 150 54 259q0 192 -133 192q-128 0 -128 -238l1 -88l1 -16h-204l-2 61q0 253 76 356q77 104 258 104q341 0 341 -378q0 -255 -255 -735l-123 -231l-6 -12t-14 -29h382v-178h-678z" />
<glyph unicode="3" d="M84 347v16v11q0 11 1 14h195q-1 -17 -1.5 -29.5t-0.5 -20.5q0 -79 34.5 -126t94.5 -47q39 0 66.5 15.5t45 50t25.5 89.5t8 133q0 141 -42.5 203t-141.5 62q-11 0 -24 -1.5t-30 -3.5v180h29q121 0 164 52t43 197q0 240 -121 240q-120 0 -120 -205l1 -47h-198v41 q0 103 17.5 177t55 122t95.5 70.5t139 22.5q170 0 248 -96t78 -305q0 -172 -36 -248q-35 -77 -135 -117q108 -37 149 -115q41 -77 41 -247q0 -233 -88 -343t-274 -110q-318 0 -318 365z" />
<glyph unicode="4" d="M60 423v177l423 944h193v-962h99v-159h-99v-423h-193v423h-423zM223 582h260v648z" />
<glyph unicode="5" d="M88 46l52 184q107 -56 179 -56q102 0 162 92q60 93 60 250q0 297 -255 297q-63 0 -127 -19l90 750h491v-179h-333l-50 -388h25q91 0 161.5 -29t118.5 -85t73 -138t25 -187q0 -260 -113 -409q-113 -147 -314 -147q-113 0 -245 64z" />
<glyph unicode="6" d="M92 509q0 235 62 448q32 106 94.5 250t156.5 337h221l-145 -297q-38 -81 -76.5 -172t-80.5 -194q87 69 167 69q129 0 199 -112q66 -105 66 -376q0 -256 -77 -369q-77 -111 -251 -111q-178 0 -257 123q-79 124 -79 404zM297 465q0 -303 130 -303t130 301q0 80 -7 136.5 t-23 92t-40.5 52t-59.5 16.5t-59.5 -16.5t-40.5 -51.5t-23 -91.5t-7 -135.5z" />
<glyph unicode="7" d="M99 0l429 1368h-429v176h690l-468 -1544h-222z" />
<glyph unicode="8" d="M91 448q0 186 39 269t143 121q-92 40 -130 118q-38 84 -38 227q0 99 18.5 171t57.5 118.5t99.5 68.5t144.5 22t144 -22t99 -68.5t57.5 -118.5t18.5 -171q0 -143 -38 -227q-38 -78 -130 -118q104 -38 143 -121t39 -269q0 -240 -80.5 -353t-252.5 -113q-173 0 -253.5 113 t-80.5 353zM296 434q0 -269 129 -269q128 0 128 259q0 81 -7 138.5t-23 93.5t-40.5 53t-58.5 17q-67 0 -97.5 -69t-30.5 -223zM310 1168q0 -240 115 -240q114 0 114 238q0 218 -115 218q-114 0 -114 -216z" />
<glyph unicode="9" d="M94 1041q0 280 76 401t253 121q179 0 256 -122t77 -406q0 -210 -48 -388q-23 -88 -66 -196.5t-107 -243.5l-81 -169l-18 -38h-222l149 300q40 82 79.5 168.5t77.5 180.5q-77 -62 -159 -62q-137 0 -202 110.5t-65 343.5zM292 1072q0 -158 30.5 -229t99.5 -71t100 70.5 t31 225.5q0 305 -131 305q-130 0 -130 -301z" />
<glyph unicode=":" horiz-adv-x="424" d="M89 109q0 51 36 87q37 36 90 36q49 0 85 -37q36 -36 36 -87t-36 -87q-38 -35 -87 -35q-26 0 -48.5 9.5t-39.5 26t-26.5 39t-9.5 48.5zM89 927q0 52 36 87q37 36 90 36q49 0 85 -37q36 -36 36 -86q0 -52 -36 -88t-87 -36q-52 0 -88 36q-36 37 -36 88z" />
<glyph unicode=";" horiz-adv-x="424" d="M29 -347l137 563l166 -49l-198 -543zM94 927q0 53 37 87q37 36 89 36q50 0 86 -37q36 -36 36 -86q0 -52 -36 -88t-88 -36q-51 0 -88 36q-36 36 -36 88z" />
<glyph unicode="&#x3c;" horiz-adv-x="1158" d="M77 696v172l1004 480v-200l-790 -367l790 -367v-198z" />
<glyph unicode="=" d="M63 584v170h722v-170h-722zM63 824v171h722v-171h-722z" />
<glyph unicode="&#x3e;" horiz-adv-x="1158" d="M78 215v200l789 366l-789 368v198l1003 -480v-172z" />
<glyph unicode="?" horiz-adv-x="761" d="M93 1158l1 59q0 90 15.5 155t49.5 107t86 61.5t126 19.5q165 0 231 -103q67 -100 67 -355q0 -231 -46 -319q-45 -88 -167 -96v-327h-181v464l46 -1q92 0 124 53t32 206q0 178 -25 240q-24 68 -86 68q-88 0 -88 -170v-62h-185zM241 109q0 51 36 86q37 36 90 36 q49 0 85 -36t36 -87t-36 -87q-38 -35 -87 -35q-26 0 -48.5 9.5t-39.5 26t-26.5 39t-9.5 48.5z" />
<glyph unicode="@" horiz-adv-x="1518" d="M62 773q0 337 211 563q211 228 520 228q281 0 471 -196q191 -197 191 -484q0 -226 -110 -393q-110 -165 -261 -165q-114 0 -165 121q-84 -125 -198 -125q-124 0 -206 118q-81 118 -81 301q0 194 97 324q98 131 243 131q54 0 88 -22q37 -20 83 -78l14 81h163l-62 -524 q-4 -28 -5.5 -54t-1.5 -49q0 -65 52 -65q73 0 132 119q59 124 59 265q0 231 -142 379q-141 149 -360 149q-230 0 -384 -180q-155 -179 -155 -444q0 -170 74 -323q74 -146 203 -227q118 -73 288 -73q200 0 400 116l23 13l72 -163l-19 -10q-230 -125 -474 -125 q-279 0 -469 151q-138 109 -214 278q-77 177 -77 363zM613 734q0 -109 33 -179t84 -70q72 0 128 96q56 98 56 222q0 100 -36 165q-36 64 -93 64q-73 0 -123 -86q-49 -85 -49 -212z" />
<glyph unicode="A" horiz-adv-x="835" d="M3 0l336 1544h162l331 -1544h-206l-58 301h-306l-59 -301h-200zM291 462h247l-46 246q-46 251 -75 536q-14 -139 -36 -281.5t-52 -302.5z" />
<glyph unicode="B" horiz-adv-x="843" d="M119 0v1544h282q331 0 331 -411q0 -157 -43 -233t-152 -115q125 -50 171 -128q47 -77 47 -232q0 -425 -364 -425h-272zM315 178q128 0 177 55t49 199q0 148 -51 207q-50 60 -175 60v-521zM315 864q121 0 168 56q47 59 47 207q0 250 -180 250h-16h-9q-8 0 -10 -1v-512z " />
<glyph unicode="C" horiz-adv-x="781" d="M88 747q0 414 114.5 616t350.5 202q87 0 172 -46v-187q-80 39 -134 39q-74 0 -127 -36.5t-87.5 -112.5t-51 -192.5t-16.5 -275.5q0 -572 293 -572q51 0 123 32v-191q-75 -42 -168 -42q-469 0 -469 766z" />
<glyph unicode="D" horiz-adv-x="953" d="M119 0v1544h256q117 0 197 -26q74 -25 132 -89q87 -96 124 -250q37 -149 37 -427q0 -255 -41 -416q-40 -154 -132 -235q-113 -101 -405 -101h-168zM327 182q190 0 254 115q66 115 66 447q0 357 -63 491t-231 134h-26v-1187z" />
<glyph unicode="E" horiz-adv-x="744" d="M119 0v1544h553v-176h-345v-489h306v-176h-306v-527h345v-176h-553z" />
<glyph unicode="F" horiz-adv-x="716" d="M119 0v1544h556v-176h-348v-488h314v-176h-314v-704h-208z" />
<glyph unicode="G" horiz-adv-x="955" d="M88 766q0 486 102 647q96 151 295 151q152 0 237 -73q86 -74 134 -243l-194 -81q-13 61 -29 102.5t-35 64.5q-38 47 -114 47q-104 0 -142 -128q-38 -134 -38 -481q0 -351 39 -475t147 -124q99 0 139 88q41 94 41 302v42v31h-181v176h378v-60q0 -451 -79 -609 q-78 -162 -292 -162q-221 0 -315 180q-93 180 -93 605z" />
<glyph unicode="H" horiz-adv-x="959" d="M119 0v1544h208v-604h305v604h208v-1544h-208v764h-305v-764h-208z" />
<glyph unicode="I" horiz-adv-x="446" d="M119 0v1544h208v-1544h-208z" />
<glyph unicode="J" horiz-adv-x="599" d="M-4 21v208q89 -53 138 -53q137 0 137 193v62v1113h209v-1185q0 -181 -53 -261q-78 -117 -254 -117q-104 0 -177 40z" />
<glyph unicode="K" horiz-adv-x="862" d="M119 0v1544h208v-748l290 748h210l-304 -748l328 -796h-234l-290 796v-796h-208z" />
<glyph unicode="L" horiz-adv-x="678" d="M119 0v1544h208v-1368h340v-176h-548z" />
<glyph unicode="M" horiz-adv-x="1168" d="M65 0l127 1544h178l136 -630q25 -118 45.5 -236.5t37.5 -248.5q2 17 3 26.5t2 13.5l29 177l26 168l23 111l121 619h180l142 -1544h-199l-35 524q-2 40 -3.5 69t-1.5 48l-9 207l-5 190q0 2 -0.5 8.5t-1.5 17.5l-5 -31q-8 -55 -14.5 -96t-11.5 -69l-26 -141l-10 -53 l-130 -674h-140l-122 582q-25 115 -44.5 233.5t-35.5 248.5l-60 -1064h-196z" />
<glyph unicode="N" horiz-adv-x="958" d="M119 0v1544h194l207 -616q90 -261 159 -557q-25 179 -37 324t-12 273v576h209v-1544h-195l-233 695q-32 97 -60.5 199t-52.5 214q-2 14 -6.5 34t-10.5 46q3 -26 5 -44.5t3 -31.5l11 -157l11 -191q1 -16 1.5 -39t0.5 -52l11 -673h-205z" />
<glyph unicode="O" horiz-adv-x="979" d="M88 809q0 412 90 583q91 172 308 172q194 0 288 -133q62 -89 90 -253q28 -152 28 -444q0 -409 -91 -581t-305 -172q-225 0 -317 185q-91 181 -91 643zM307 765q0 -339 38 -470q39 -124 146 -124q105 0 144 116q39 115 39 425q0 401 -36 532q-36 132 -147 132t-148 -121 q-36 -122 -36 -490z" />
<glyph unicode="P" horiz-adv-x="812" d="M119 0v1544h274q198 0 288 -100q90 -101 90 -320q0 -308 -181 -398q-91 -41 -263 -41v-685h-208zM327 863q129 0 178 52q50 53 50 188q0 138 -48 202t-151 64h-29v-506z" />
<glyph unicode="Q" horiz-adv-x="979" d="M88 827q0 402 90 569q90 168 305 168q226 0 318 -185q91 -181 91 -642q0 -417 -87 -579l131 -181l-131 -94l-106 151q-95 -53 -201 -53q-225 0 -318 190q-92 196 -92 656zM306 816q0 -375 38 -512q38 -131 148 -131q44 0 84 28l-132 190l124 99l86 -122q21 148 21 334 q0 398 -38 538q-38 135 -151 135q-106 0 -143 -115q-37 -110 -37 -444z" />
<glyph unicode="R" horiz-adv-x="863" d="M119 0v1544h274q170 0 253 -81q105 -105 105 -321q0 -166 -55.5 -266.5t-158.5 -124.5l284 -751h-211l-283 756v-756h-208zM327 860q121 0 171 56t50 189q0 72 -10.5 123t-33 83t-58 47t-84.5 15h-35v-513z" />
<glyph unicode="S" horiz-adv-x="764" d="M73 1171q0 181 94 287q95 107 255 107q111 0 212 -53v-203q-95 68 -171 68q-82 0 -134 -58q-52 -55 -52 -147q0 -81 37 -139q19 -31 62.5 -80t112.5 -118q127 -129 173 -223q46 -91 46 -223q0 -179 -101 -295q-101 -113 -259 -113q-133 0 -227 73v206q111 -81 202 -81 q85 0 133 56.5t48 153.5q0 84 -37 151q-19 32 -53 73.5t-85 92.5q-79 78 -131 138t-77 105q-48 88 -48 222z" />
<glyph unicode="T" horiz-adv-x="669" d="M-4 1362v182h677v-182h-233v-1362h-204v1362h-240z" />
<glyph unicode="U" horiz-adv-x="948" d="M119 453v1091h204v-1091q0 -167 30 -222q31 -55 122 -55t120 48q30 49 30 199v1121h204v-1121q0 -252 -77 -341q-92 -101 -281 -101q-208 0 -293 130q-59 89 -59 342z" />
<glyph unicode="V" horiz-adv-x="757" d="M-4 1544h205l93 -570l16 -103l33 -224q8 -57 14.5 -104t11.5 -85l10 -76q3 23 5 41t4 30l27 179l35 235q5 32 9.5 59t8.5 48l100 570h194l-303 -1544h-165z" />
<glyph unicode="W" horiz-adv-x="1214" d="M3 1544h201l105 -717l17 -106q12 -86 18 -157l11 -131q1 -5 2 -18t3 -33l5 50q12 131 25.5 241t29.5 203l111 668h160l104 -649q23 -144 38.5 -267t25.5 -235q10 118 22.5 228t26.5 216l15 103l89 604h199l-273 -1544h-162l-109 667q-1 4 -5 33t-12 83l-21 154 q-2 18 -6.5 54t-9.5 91l-5 64q-2 -23 -4 -40t-3 -28q-5 -66 -8.5 -102.5t-4.5 -44.5l-21 -148q-7 -51 -11 -80t-6 -36l-113 -667h-167z" />
<glyph unicode="X" horiz-adv-x="769" d="M-4 0l292 784l-274 760h202l107 -299q63 -177 75 -259q11 51 24.5 99t28.5 96l14 45l99 318h210l-286 -760l286 -784h-210l-102 294q-31 88 -50 158t-27 124q-8 -67 -27 -128l-35 -110l-18 -58l-89 -280h-220z" />
<glyph unicode="Y" horiz-adv-x="791" d="M-4 1544h220l102 -336q5 -15 10 -33t12 -39q57 -182 78 -306q18 124 30 173l32 138l12 54l86 349h217l-269 -880v-664h-208v664z" />
<glyph unicode="Z" horiz-adv-x="773" d="M26 0l468 1368h-413v176h680l-464 -1362h439v-182h-710z" />
<glyph unicode="[" horiz-adv-x="723" d="M154 -424v2123h491v-178h-281v-1767h281v-178h-491z" />
<glyph unicode="\" horiz-adv-x="923" d="M-52 1699h160l923 -2123h-164z" />
<glyph unicode="]" horiz-adv-x="723" d="M77 -246h281v1767h-281v178h491v-2123h-491v178z" />
<glyph unicode="^" horiz-adv-x="1158" d="M47 828l400 722h264l401 -722h-216l-318 562l-317 -562h-214z" />
<glyph unicode="_" horiz-adv-x="1158" d="M0 -139h1158v-183h-1158v183z" />
<glyph unicode="`" horiz-adv-x="1158" d="M318 1465l137 88l169 -305l-103 -59z" />
<glyph unicode="a" horiz-adv-x="808" d="M69 530q0 269 60 395.5t189 126.5q118 0 190 -134v117h191v-1035h-191v133q-41 -85 -82 -117t-108 -32q-129 0 -189 132t-60 414zM267 522q0 -204 27 -285q28 -81 98 -81q64 0 93 84q29 90 29 277q0 188 -29 278q-29 84 -93 84q-68 0 -97 -80q-28 -74 -28 -277z" />
<glyph unicode="b" horiz-adv-x="808" d="M108 0v1699h191v-781q20 38 41 64t41 40q40 30 104 30q66 0 114 -30.5t78.5 -94.5t45.5 -163t15 -235q0 -282 -60 -413.5t-188 -131.5q-68 0 -109 32t-82 117v-133h-191zM295 517q0 -198 27 -280q27 -81 93 -81q68 0 97 80q28 74 28 276q0 211 -28 286q-27 81 -97 81 q-66 0 -93 -82q-27 -81 -27 -280z" />
<glyph unicode="c" horiz-adv-x="585" d="M69 508q0 279 76 411.5t236 132.5q77 0 150 -37v-195q-40 49 -96 49q-158 0 -158 -342q0 -363 157 -363q44 0 97 39v-179q-76 -40 -154 -40q-308 0 -308 524z" />
<glyph unicode="d" horiz-adv-x="808" d="M69 529q0 136 15 235t45.5 163t78.5 94.5t114 30.5q63 0 104 -30q20 -14 41 -40t41 -64v781h191v-1699h-191v133q-41 -85 -82 -117t-109 -32q-128 0 -188 131.5t-60 413.5zM267 522q0 -204 27 -285q28 -81 98 -81q64 0 93 84q29 90 29 277q0 188 -29 278q-29 84 -93 84 q-68 0 -97 -80q-28 -74 -28 -277z" />
<glyph unicode="e" horiz-adv-x="755" d="M69 514q0 274 76.5 406t236.5 132q311 0 311 -548v-24h-437q0 -332 132 -332q120 0 120 201h178q-21 -365 -300 -365q-83 0 -142.5 31t-98.5 96t-57.5 165t-18.5 238zM256 618h242q-12 163 -37 214q-26 57 -84 57q-59 0 -84 -57q-25 -51 -37 -214z" />
<glyph unicode="f" horiz-adv-x="502" d="M35 883v152h96v361q0 177 52 250t181 73q56 0 130 -27v-202q-46 25 -81 25q-49 0 -69.5 -29t-20.5 -98l-1 -78v-275h162v-152h-162v-883h-191v883h-96z" />
<glyph unicode="g" horiz-adv-x="809" d="M69 504q0 284 59 419q58 129 193 129q64 0 104 -31t84 -110v124h192v-1068q0 -192 -38 -266q-70 -136 -281 -136q-139 0 -218 79q-80 80 -80 215l1 32h185q0 -165 123 -165q67 0 91 42q25 40 25 159v199q-61 -142 -187 -142q-130 0 -191.5 126t-61.5 394zM267 528 q0 -195 29 -287q30 -85 100 -85q66 0 91 76q25 71 25 276q0 371 -128 371q-61 0 -89 -83.5t-28 -267.5z" />
<glyph unicode="h" horiz-adv-x="829" d="M108 0v1699h191v-783q82 136 212 136q126 0 180 -99q30 -56 30 -217v-736h-191l-1 692q0 105 -25 149t-86 44q-33 0 -55.5 -11.5t-36.5 -37t-20.5 -66.5t-6.5 -101v-669h-191z" />
<glyph unicode="i" horiz-adv-x="407" d="M67 1347q0 52 38 90q41 38 93 38t90 -38t38 -91q0 -54 -38 -92t-92 -38t-92 38q-37 37 -37 93zM108 0v1035h192v-1035h-192z" />
<glyph unicode="j" horiz-adv-x="407" d="M67 1347q0 52 38 90q41 38 93 38t90 -38t38 -91q0 -54 -38 -92t-92 -38t-92 38q-37 37 -37 93zM108 -424v1459h192v-1459h-192z" />
<glyph unicode="k" horiz-adv-x="801" d="M108 0v1699h191v-1125l243 461h216l-264 -461l299 -574h-224l-270 550v-550h-191z" />
<glyph unicode="l" horiz-adv-x="408" d="M108 0v1699h191v-1699h-191z" />
<glyph unicode="m" horiz-adv-x="1251" d="M108 0v1035h191v-128q79 145 210 145q143 0 194 -145q76 145 216 145q109 0 166.5 -57.5t57.5 -169.5v-825h-192v681q0 117 -22 157q-21 41 -82 41q-69 0 -94 -42q-24 -41 -24 -156v-681h-198v681q0 55 -5.5 93t-18.5 61t-34 33.5t-52 10.5q-66 0 -94 -45t-28 -153v-681 h-191z" />
<glyph unicode="n" horiz-adv-x="829" d="M108 0v1035h191v-119q82 136 212 136q126 0 180 -99q30 -56 30 -217v-736h-191l-1 692q0 105 -25 149t-86 44q-33 0 -55.5 -11.5t-36.5 -37t-20.5 -66.5t-6.5 -101v-669h-191z" />
<glyph unicode="o" horiz-adv-x="789" d="M69 517q0 535 324 535q84 0 145.5 -32t101.5 -99t59.5 -169t19.5 -243q0 -525 -325 -525t-325 533zM274 520q0 -199 27 -278q29 -80 97 -80t95 79q28 74 28 273q0 204 -27 284q-27 81 -96 81q-68 0 -97 -80q-27 -80 -27 -279z" />
<glyph unicode="p" horiz-adv-x="808" d="M108 -424v1459h191v-134q40 85 82 118t110 33q128 0 187.5 -132.5t59.5 -414.5q0 -276 -61 -397q-60 -124 -193 -124q-64 0 -105 29q-20 14 -40 40t-40 63v-540h-191zM293 517q0 -200 28 -278q29 -83 94 -83q68 0 97 80q28 74 28 276q0 211 -28 286q-27 81 -97 81 q-66 0 -94 -84q-28 -78 -28 -278z" />
<glyph unicode="q" horiz-adv-x="808" d="M69 505q0 282 60 414.5t187 132.5q68 0 110 -33t82 -118v134h191v-1459h-191v540q-20 -37 -40 -62.5t-41.5 -41t-47 -22t-56.5 -6.5q-133 0 -194 124q-60 124 -60 397zM267 522q0 -204 27 -285q28 -81 98 -81q64 0 93 84q29 90 29 277q0 188 -29 278q-29 84 -93 84 q-68 0 -97 -80q-28 -74 -28 -277z" />
<glyph unicode="r" horiz-adv-x="547" d="M108 0v1035h191v-129q49 82 97 115t127 38v-200q-20 3 -34 3q-103 0 -147 -53q-43 -52 -43 -182v-627h-191z" />
<glyph unicode="s" horiz-adv-x="602" d="M57 775q0 125 77 205q78 79 203 79q88 0 171 -45v-179q-70 52 -147 52q-26 0 -48 -9t-38.5 -24.5t-26 -37t-9.5 -45.5q0 -74 134 -176q54 -42 90 -78t55 -68q39 -63 39 -159q0 -139 -81 -223q-80 -83 -215 -83q-83 0 -168 49v185q83 -62 157 -62q131 0 131 129 q0 48 -24 83q-11 17 -35 39.5t-59 50.5q-121 94 -164 158q-42 66 -42 159z" />
<glyph unicode="t" horiz-adv-x="455" d="M26 883v152h105v290h191v-290h104v-152h-104v-883h-191v883h-105z" />
<glyph unicode="u" horiz-adv-x="832" d="M108 351v684h191v-692q2 -96 28.5 -137t88.5 -41q65 0 91 36q26 38 26 132v83v619h191v-619q0 -217 -32 -290q-67 -142 -278 -142q-166 0 -236 84q-70 85 -70 283z" />
<glyph unicode="v" horiz-adv-x="695" d="M8 1035h205l75 -328q23 -100 39 -211.5t26 -243.5q6 31 6 36l23 154q13 88 51 265l69 328h185l-270 -1035h-129z" />
<glyph unicode="w" horiz-adv-x="1039" d="M15 1035h202l58 -333q17 -100 30.5 -193t21.5 -181l3 -36l4 38q8 72 16.5 132.5t18.5 111.5l16 79l71 382h139l67 -382l22 -120q7 -34 13 -84.5t12 -119.5l4 -37q18 186 51 361l71 382h188l-243 -1035h-132l-79 395q-14 72 -24 147.5t-17 160.5q-1 10 -2 24t-3 33 q-6 -91 -17 -176.5t-27 -170.5l-80 -413h-132z" />
<glyph unicode="x" horiz-adv-x="770" d="M8 0l259 546l-259 489h226l91 -200q16 -35 30 -73.5t25 -81.5q8 38 19 73t25 69l13 30l75 183h201l-234 -489l283 -546h-228l-91 198q-67 139 -79 222q-9 -80 -64 -204l-92 -216h-200z" />
<glyph unicode="y" horiz-adv-x="755" d="M8 1035h216l152 -722l178 722h194l-423 -1459h-201l159 507z" />
<glyph unicode="z" horiz-adv-x="691" d="M31 0l358 866h-330v169h601l-346 -862h328v-173h-611z" />
<glyph unicode="{" horiz-adv-x="618" d="M76 545v192q10 12 29 16q100 19 100 161v441q0 347 298 347l47 -1q24 0 37 -10v-186h-59q-79 0 -100 -32q-20 -32 -20 -155v-421q0 -49 -5.5 -87.5t-17.5 -70t-31.5 -57t-46.5 -48.5q60 -60 80 -114q21 -54 21 -150v-414l2 -49q0 -94 21 -119q23 -26 99 -26h18h39v-187 h-73q-160 -2 -234.5 89t-74.5 287v413q0 84 -22 121q-22 38 -78 52q-5 2 -9 3l-8 2z" />
<glyph unicode="|" horiz-adv-x="1158" d="M479 -385v1929h201v-1929h-201z" />
<glyph unicode="}" horiz-adv-x="618" d="M31 -230h58q79 0 100 32q21 31 21 155v420q0 103 22 156q22 58 79 106q-58 61 -81 115q-20 60 -20 150v415l-2 49q0 93 -22 118q-21 27 -98 27h-18h-39v187h73q160 2 234.5 -89t74.5 -287v-414q0 -85 21 -122q22 -37 79 -51q5 -2 9 -3l8 -2l12 -3v-192q-10 -12 -29 -16 q-100 -19 -100 -162v-439q0 -347 -299 -347l-47 1q-23 0 -36 10v186z" />
<glyph unicode="~" horiz-adv-x="1544" d="M213 1411q78 162 147 222q70 61 180 61q90 0 254 -73q150 -67 217 -67q65 0 105 31q42 30 92 114l123 -72q-36 -73 -73.5 -125t-79.5 -85.5t-89.5 -49t-104.5 -15.5q-78 0 -203 55l-124 52q-78 33 -133 33q-107 0 -191 -159z" />
<glyph unicode="&#xad;" horiz-adv-x="364" d="M0 452v156h364v-156h-364z" />
<glyph unicode="&#xc0;" horiz-adv-x="835" d="M3 0l336 1544h162l331 -1544h-206l-58 301h-306l-59 -301h-200zM196 1858l109 120l215 -210l-74 -85zM291 462h247l-46 246q-46 251 -75 536q-14 -139 -36 -281.5t-52 -302.5z" />
<glyph unicode="&#xc1;" horiz-adv-x="835" d="M3 0l336 1544h162l331 -1544h-206l-58 301h-306l-59 -301h-200zM291 462h247l-46 246q-46 251 -75 536q-14 -139 -36 -281.5t-52 -302.5zM313 1768l215 210l109 -120l-250 -175z" />
<glyph unicode="&#xc2;" horiz-adv-x="835" d="M3 0l336 1544h162l331 -1544h-206l-58 301h-306l-59 -301h-200zM163 1779l254 223l257 -211l-86 -108l-171 144l-171 -144zM291 462h247l-46 246q-46 251 -75 536q-14 -139 -36 -281.5t-52 -302.5z" />
<glyph unicode="&#xc3;" horiz-adv-x="835" d="M3 0l336 1544h162l331 -1544h-206l-58 301h-306l-59 -301h-200zM165 1705q0 46 10.5 84.5t29.5 65.5t46 42t60 15q34 0 127 -42q65 -31 91 -31q35 0 35 56h121q0 -97 -41 -150.5t-113 -53.5q-39 0 -115 40q-61 31 -92 31q-37 0 -41 -57h-118zM291 462h247l-46 246 q-46 251 -75 536q-14 -139 -36 -281.5t-52 -302.5z" />
<glyph unicode="&#xc8;" horiz-adv-x="744" d="M119 0v1544h553v-176h-345v-489h306v-176h-306v-527h345v-176h-553zM196 1858l109 120l215 -210l-74 -85z" />
<glyph unicode="&#xc9;" horiz-adv-x="744" d="M119 0v1544h553v-176h-345v-489h306v-176h-306v-527h345v-176h-553zM288 1768l215 210l109 -120l-250 -175z" />
<glyph unicode="&#xca;" horiz-adv-x="744" d="M119 0v1544h553v-176h-345v-489h306v-176h-306v-527h345v-176h-553zM140 1779l254 223l257 -211l-86 -108l-171 144l-171 -144z" />
<glyph unicode="&#xcc;" horiz-adv-x="446" d="M-1 1858l109 120l215 -210l-74 -85zM119 0v1544h208v-1544h-208z" />
<glyph unicode="&#xcd;" horiz-adv-x="446" d="M119 0v1544h208v-1544h-208zM128 1768l215 210l109 -120l-250 -175z" />
<glyph unicode="&#xd2;" horiz-adv-x="979" d="M88 809q0 412 90 583q91 172 308 172q194 0 288 -133q62 -89 90 -253q28 -152 28 -444q0 -409 -91 -581t-305 -172q-225 0 -317 185q-91 181 -91 643zM267 1858l109 120l215 -210l-74 -85zM307 765q0 -339 38 -470q39 -124 146 -124q105 0 144 116q39 115 39 425 q0 401 -36 532q-36 132 -147 132t-148 -121q-36 -122 -36 -490z" />
<glyph unicode="&#xd3;" horiz-adv-x="979" d="M88 809q0 412 90 583q91 172 308 172q194 0 288 -133q62 -89 90 -253q28 -152 28 -444q0 -409 -91 -581t-305 -172q-225 0 -317 185q-91 181 -91 643zM307 765q0 -339 38 -470q39 -124 146 -124q105 0 144 116q39 115 39 425q0 401 -36 532q-36 132 -147 132t-148 -121 q-36 -122 -36 -490zM390 1768l215 210l109 -120l-250 -175z" />
<glyph unicode="&#xd4;" horiz-adv-x="979" d="M88 809q0 412 90 583q91 172 308 172q194 0 288 -133q62 -89 90 -253q28 -152 28 -444q0 -409 -91 -581t-305 -172q-225 0 -317 185q-91 181 -91 643zM237 1759l254 223l257 -211l-86 -108l-171 144l-171 -144zM307 765q0 -339 38 -470q39 -124 146 -124q105 0 144 116 q39 115 39 425q0 401 -36 532q-36 132 -147 132t-148 -121q-36 -122 -36 -490z" />
<glyph unicode="&#xd5;" horiz-adv-x="979" d="M88 809q0 412 90 583q91 172 308 172q194 0 288 -133q62 -89 90 -253q28 -152 28 -444q0 -409 -91 -581t-305 -172q-225 0 -317 185q-91 181 -91 643zM245 1705q0 46 10.5 84.5t29.5 65.5t46 42t60 15q34 0 127 -42q65 -31 91 -31q35 0 35 56h121q0 -97 -41 -150.5 t-113 -53.5q-39 0 -115 40q-61 31 -92 31q-37 0 -41 -57h-118zM307 765q0 -339 38 -470q39 -124 146 -124q105 0 144 116q39 115 39 425q0 401 -36 532q-36 132 -147 132t-148 -121q-36 -122 -36 -490z" />
<glyph unicode="&#xd9;" horiz-adv-x="948" d="M119 453v1091h204v-1091q0 -167 30 -222q31 -55 122 -55t120 48q30 49 30 199v1121h204v-1121q0 -252 -77 -341q-92 -101 -281 -101q-208 0 -293 130q-59 89 -59 342zM262 1858l109 120l215 -210l-74 -85z" />
<glyph unicode="&#xda;" horiz-adv-x="948" d="M119 453v1091h204v-1091q0 -167 30 -222q31 -55 122 -55t120 48q30 49 30 199v1121h204v-1121q0 -252 -77 -341q-92 -101 -281 -101q-208 0 -293 130q-59 89 -59 342zM369 1768l215 210l109 -120l-250 -175z" />
<glyph unicode="&#xdd;" horiz-adv-x="791" d="M-4 1544h220l102 -336q5 -15 10 -33t12 -39q57 -182 78 -306q18 124 30 173l32 138l12 54l86 349h217l-269 -880v-664h-208v664zM327 1768l215 210l109 -120l-250 -175z" />
<glyph unicode="&#xe0;" horiz-adv-x="808" d="M69 530q0 269 60 395.5t189 126.5q118 0 190 -134v117h191v-1035h-191v133q-41 -85 -82 -117t-108 -32q-129 0 -189 132t-60 414zM208 1465l137 88l169 -305l-103 -59zM267 522q0 -204 27 -285q28 -81 98 -81q64 0 93 84q29 90 29 277q0 188 -29 278q-29 84 -93 84 q-68 0 -97 -80q-28 -74 -28 -277z" />
<glyph unicode="&#xe1;" horiz-adv-x="808" d="M69 530q0 269 60 395.5t189 126.5q118 0 190 -134v117h191v-1035h-191v133q-41 -85 -82 -117t-108 -32q-129 0 -189 132t-60 414zM267 522q0 -204 27 -285q28 -81 98 -81q64 0 93 84q29 90 29 277q0 188 -29 278q-29 84 -93 84q-68 0 -97 -80q-28 -74 -28 -277zM316 1248 l169 305l137 -88l-203 -276z" />
<glyph unicode="&#xe2;" horiz-adv-x="808" d="M69 530q0 269 60 395.5t189 126.5q118 0 190 -134v117h191v-1035h-191v133q-41 -85 -82 -117t-108 -32q-129 0 -189 132t-60 414zM152 1268l258 286l253 -286l-96 -79l-160 170l-148 -170zM267 522q0 -204 27 -285q28 -81 98 -81q64 0 93 84q29 90 29 277q0 188 -29 278 q-29 84 -93 84q-68 0 -97 -80q-28 -74 -28 -277z" />
<glyph unicode="&#xe3;" horiz-adv-x="808" d="M69 530q0 269 60 395.5t189 126.5q118 0 190 -134v117h191v-1035h-191v133q-41 -85 -82 -117t-108 -32q-129 0 -189 132t-60 414zM154 1214q15 202 155 202q56 0 134 -45q41 -23 70 -23q32 0 41 60h117q-5 -56 -15.5 -95t-28.5 -63t-45 -35t-65 -11q-42 0 -94 27l-50 24 q-29 15 -55 15q-36 0 -44 -56h-120zM267 522q0 -204 27 -285q28 -81 98 -81q64 0 93 84q29 90 29 277q0 188 -29 278q-29 84 -93 84q-68 0 -97 -80q-28 -74 -28 -277z" />
<glyph unicode="&#xe8;" horiz-adv-x="755" d="M69 514q0 274 76.5 406t236.5 132q311 0 311 -548v-24h-437q0 -332 132 -332q120 0 120 201h178q-21 -365 -300 -365q-83 0 -142.5 31t-98.5 96t-57.5 165t-18.5 238zM181 1465l137 88l169 -305l-103 -59zM256 618h242q-12 163 -37 214q-26 57 -84 57q-59 0 -84 -57 q-25 -51 -37 -214z" />
<glyph unicode="&#xe9;" horiz-adv-x="755" d="M69 514q0 274 76.5 406t236.5 132q311 0 311 -548v-24h-437q0 -332 132 -332q120 0 120 201h178q-21 -365 -300 -365q-83 0 -142.5 31t-98.5 96t-57.5 165t-18.5 238zM256 618h242q-12 163 -37 214q-26 57 -84 57q-59 0 -84 -57q-25 -51 -37 -214zM289 1248l169 305 l137 -88l-203 -276z" />
<glyph unicode="&#xea;" horiz-adv-x="755" d="M69 514q0 274 76.5 406t236.5 132q311 0 311 -548v-24h-437q0 -332 132 -332q120 0 120 201h178q-21 -365 -300 -365q-83 0 -142.5 31t-98.5 96t-57.5 165t-18.5 238zM126 1268l258 286l253 -286l-96 -79l-160 170l-148 -170zM256 618h242q-12 163 -37 214q-26 57 -84 57 q-59 0 -84 -57q-25 -51 -37 -214z" />
<glyph unicode="&#xec;" horiz-adv-x="408" d="M-23 1465l137 88l169 -305l-103 -59zM108 0v1035h191v-1035h-191z" />
<glyph unicode="&#xed;" horiz-adv-x="408" d="M108 0v1035h191v-1035h-191zM131 1248l169 305l137 -88l-203 -276z" />
<glyph unicode="&#xf2;" horiz-adv-x="789" d="M69 517q0 535 324 535q84 0 145.5 -32t101.5 -99t59.5 -169t19.5 -243q0 -525 -325 -525t-325 533zM206 1465l137 88l169 -305l-103 -59zM274 520q0 -199 27 -278q29 -80 97 -80t95 79q28 74 28 273q0 204 -27 284q-27 81 -96 81q-68 0 -97 -80q-27 -80 -27 -279z" />
<glyph unicode="&#xf3;" horiz-adv-x="789" d="M69 517q0 535 324 535q84 0 145.5 -32t101.5 -99t59.5 -169t19.5 -243q0 -525 -325 -525t-325 533zM274 520q0 -199 27 -278q29 -80 97 -80t95 79q28 74 28 273q0 204 -27 284q-27 81 -96 81q-68 0 -97 -80q-27 -80 -27 -279zM306 1248l169 305l137 -88l-203 -276z" />
<glyph unicode="&#xf4;" horiz-adv-x="789" d="M69 517q0 535 324 535q84 0 145.5 -32t101.5 -99t59.5 -169t19.5 -243q0 -525 -325 -525t-325 533zM143 1268l258 286l253 -286l-96 -79l-160 170l-148 -170zM274 520q0 -199 27 -278q29 -80 97 -80t95 79q28 74 28 273q0 204 -27 284q-27 81 -96 81q-68 0 -97 -80 q-27 -80 -27 -279z" />
<glyph unicode="&#xf5;" horiz-adv-x="789" d="M69 517q0 535 324 535q84 0 145.5 -32t101.5 -99t59.5 -169t19.5 -243q0 -525 -325 -525t-325 533zM145 1214q15 202 155 202q56 0 134 -45q41 -23 70 -23q32 0 41 60h117q-5 -56 -15.5 -95t-28.5 -63t-45 -35t-65 -11q-42 0 -94 27l-50 24q-29 15 -55 15q-36 0 -44 -56 h-120zM274 520q0 -199 27 -278q29 -80 97 -80t95 79q28 74 28 273q0 204 -27 284q-27 81 -96 81q-68 0 -97 -80q-27 -80 -27 -279z" />
<glyph unicode="&#xf9;" horiz-adv-x="832" d="M108 351v684h191v-692q2 -96 28.5 -137t88.5 -41q65 0 91 36q26 38 26 132v83v619h191v-619q0 -217 -32 -290q-67 -142 -278 -142q-166 0 -236 84q-70 85 -70 283zM228 1465l137 88l169 -305l-103 -59z" />
<glyph unicode="&#xfa;" horiz-adv-x="832" d="M108 351v684h191v-692q2 -96 28.5 -137t88.5 -41q65 0 91 36q26 38 26 132v83v619h191v-619q0 -217 -32 -290q-67 -142 -278 -142q-166 0 -236 84q-70 85 -70 283zM328 1248l169 305l137 -88l-203 -276z" />
<glyph unicode="&#xfd;" horiz-adv-x="755" d="M8 1035h216l152 -722l178 722h194l-423 -1459h-201l159 507zM319 1248l169 305l137 -88l-203 -276z" />
<glyph unicode="&#x102;" horiz-adv-x="835" d="M3 0l336 1544h162l331 -1544h-206l-58 301h-306l-59 -301h-200zM152 1936h127q21 -116 147 -116q119 0 142 116h127q-6 -66 -24.5 -112.5t-51.5 -76t-82.5 -43t-116.5 -13.5q-245 0 -268 245zM291 462h247l-46 246q-46 251 -75 536q-14 -139 -36 -281.5t-52 -302.5z" />
<glyph unicode="&#x103;" horiz-adv-x="808" d="M69 530q0 269 60 395.5t189 126.5q118 0 190 -134v117h191v-1035h-191v133q-41 -85 -82 -117t-108 -32q-129 0 -189 132t-60 414zM142 1461h127q8 -146 129 -146q109 0 124 146h128q-14 -267 -250 -267q-239 0 -258 267zM267 522q0 -204 27 -285q28 -81 98 -81 q64 0 93 84q29 90 29 277q0 188 -29 278q-29 84 -93 84q-68 0 -97 -80q-28 -74 -28 -277z" />
<glyph unicode="&#x110;" horiz-adv-x="953" d="M3 764v161h116v619h256q117 0 197 -26q74 -25 132 -89q85 -94 123 -250q19 -81 28.5 -186.5t9.5 -241.5q0 -254 -41 -415q-40 -154 -132 -235q-113 -101 -405 -101h-168v764h-116zM327 181q190 0 254 115q66 115 66 448q0 357 -63 491t-232 134h-25v-444h201v-161h-201 v-583z" />
<glyph unicode="&#x111;" horiz-adv-x="808" d="M69 529q0 136 15 235t45.5 163t78.5 94.5t114 30.5q63 0 104 -30q20 -14 41 -40t41 -64v352h-133v161h133v268h191v-268h141v-161h-141v-1270h-191v133q-41 -85 -82 -117t-109 -32q-128 0 -188 131.5t-60 413.5zM267 522q0 -204 27 -285q28 -81 98 -81q64 0 93 84 q29 90 29 277q0 188 -29 278q-29 84 -93 84q-68 0 -97 -80q-28 -74 -28 -277z" />
<glyph unicode="&#x128;" horiz-adv-x="507" d="M-5 1700q15 202 155 202q56 0 134 -45q41 -23 70 -23q32 0 41 60h117q-5 -56 -15.5 -95t-28.5 -63t-45 -35t-65 -11q-42 0 -94 27l-50 24q-29 15 -55 15q-36 0 -44 -56h-120zM119 0v1544h208v-1544h-208z" />
<glyph unicode="&#x129;" horiz-adv-x="514" d="M2 1214q15 202 155 202q56 0 134 -45q41 -23 70 -23q32 0 41 60h117q-5 -56 -15.5 -95t-28.5 -63t-45 -35t-65 -11q-42 0 -94 27l-50 24q-29 15 -55 15q-36 0 -44 -56h-120zM149 7v1035h191v-1035h-191z" />
<glyph unicode="&#x168;" horiz-adv-x="948" d="M119 453v1091h204v-1091q0 -167 30 -222q31 -55 122 -55t120 48q30 49 30 199v1121h204v-1121q0 -252 -77 -341q-92 -101 -281 -101q-208 0 -293 130q-59 89 -59 342zM225 1700q15 202 155 202q56 0 134 -45q41 -23 70 -23q32 0 41 60h117q-5 -56 -15.5 -95t-28.5 -63 t-45 -35t-65 -11q-42 0 -94 27l-50 24q-29 15 -55 15q-36 0 -44 -56h-120z" />
<glyph unicode="&#x169;" horiz-adv-x="832" d="M108 351v684h191v-692q2 -96 28.5 -137t88.5 -41q65 0 91 36q26 38 26 132v83v619h191v-619q0 -217 -32 -290q-67 -142 -278 -142q-166 0 -236 84q-70 85 -70 283zM176 1214q15 202 155 202q56 0 134 -45q41 -23 70 -23q32 0 41 60h117q-5 -56 -15.5 -95t-28.5 -63 t-45 -35t-65 -11q-42 0 -94 27l-50 24q-29 15 -55 15q-36 0 -44 -56h-120z" />
<glyph unicode="&#x2000;" horiz-adv-x="1001" />
<glyph unicode="&#x2001;" horiz-adv-x="2002" />
<glyph unicode="&#x2002;" horiz-adv-x="1001" />
<glyph unicode="&#x2003;" horiz-adv-x="2002" />
<glyph unicode="&#x2004;" horiz-adv-x="667" />
<glyph unicode="&#x2005;" horiz-adv-x="500" />
<glyph unicode="&#x2006;" horiz-adv-x="333" />
<glyph unicode="&#x2007;" horiz-adv-x="333" />
<glyph unicode="&#x2008;" horiz-adv-x="250" />
<glyph unicode="&#x2009;" horiz-adv-x="400" />
<glyph unicode="&#x200a;" horiz-adv-x="111" />
<glyph unicode="&#x2010;" horiz-adv-x="364" d="M0 452v156h364v-156h-364z" />
<glyph unicode="&#x2011;" horiz-adv-x="364" d="M0 452v156h364v-156h-364z" />
<glyph unicode="&#x2012;" horiz-adv-x="364" d="M0 452v156h364v-156h-364z" />
<glyph unicode="&#x2013;" horiz-adv-x="878" d="M131 454v153h616v-153h-616z" />
<glyph unicode="&#x2014;" horiz-adv-x="1033" d="M0 454v153h1033v-153h-1033z" />
<glyph unicode="&#x2018;" horiz-adv-x="473" d="M93 1093l197 544l106 -30l-137 -563z" />
<glyph unicode="&#x2019;" horiz-adv-x="473" d="M93 1030l137 563l166 -49l-198 -544z" />
<glyph unicode="&#x201c;" horiz-adv-x="754" d="M93 1093l197 544l106 -30l-137 -563zM374 1093l197 544l106 -30l-137 -563z" />
<glyph unicode="&#x201d;" horiz-adv-x="754" d="M93 1030l137 563l166 -49l-198 -544zM374 1030l137 563l166 -49l-198 -544z" />
<glyph unicode="&#x2026;" horiz-adv-x="1297" d="M93 109q0 51 36 87q37 36 90 36q49 0 85 -37q36 -36 36 -87t-36 -87q-38 -35 -87 -35q-26 0 -48.5 9.5t-39.5 26t-26.5 39t-9.5 48.5zM525 109q0 51 37 87t89 36q51 0 85 -37q36 -36 36 -87t-36 -87q-38 -35 -87 -35q-26 0 -48.5 9.5t-39.5 26t-26.5 39t-9.5 48.5z M958 109q0 51 36 87q37 36 89 36q50 0 86 -37q36 -36 36 -87t-37 -87q-38 -35 -87 -35t-87 35q-36 36 -36 88z" />
<glyph unicode="&#x202f;" horiz-adv-x="400" />
<glyph unicode="&#x205f;" horiz-adv-x="500" />
<glyph unicode="&#x25fc;" horiz-adv-x="1035" d="M0 0v1035h1035v-1035h-1035z" />
<hkern u1="&#x2c;" u2="&#x31;" k="119" />
<hkern u1="&#x2c;" u2="&#x201d;" k="57" />
<hkern u1="&#x2c;" u2="&#x2019;" k="57" />
<hkern u1="&#x2d;" u2="&#xc1;" k="-59" />
<hkern u1="&#x2d;" u2="Y" k="41" />
<hkern u1="&#x2d;" u2="W" k="-29" />
<hkern u1="&#x2d;" u2="V" k="-20" />
<hkern u1="&#x2d;" u2="A" k="-59" />
<hkern u1="&#x2e;" u2="&#x201d;" k="59" />
<hkern u1="&#x2e;" u2="&#x2019;" k="59" />
<hkern u1="&#x2e;" u2="&#x31;" k="117" />
<hkern u1="&#x30;" u2="&#x37;" k="43" />
<hkern u1="&#x30;" u2="&#x34;" k="-2" />
<hkern u1="&#x30;" u2="&#x31;" k="86" />
<hkern u1="&#x31;" u2="&#x39;" k="129" />
<hkern u1="&#x31;" u2="&#x38;" k="113" />
<hkern u1="&#x31;" u2="&#x37;" k="135" />
<hkern u1="&#x31;" u2="&#x36;" k="127" />
<hkern u1="&#x31;" u2="&#x35;" k="127" />
<hkern u1="&#x31;" u2="&#x34;" k="113" />
<hkern u1="&#x31;" u2="&#x33;" k="125" />
<hkern u1="&#x31;" u2="&#x32;" k="123" />
<hkern u1="&#x31;" u2="&#x31;" k="176" />
<hkern u1="&#x31;" u2="&#x30;" k="104" />
<hkern u1="&#x31;" u2="&#x2e;" k="102" />
<hkern u1="&#x31;" u2="&#x2c;" k="117" />
<hkern u1="&#x32;" u2="&#x37;" k="23" />
<hkern u1="&#x32;" u2="&#x34;" k="76" />
<hkern u1="&#x32;" u2="&#x31;" k="66" />
<hkern u1="&#x33;" u2="&#x37;" k="35" />
<hkern u1="&#x33;" u2="&#x31;" k="78" />
<hkern u1="&#x34;" u2="&#x37;" k="63" />
<hkern u1="&#x34;" u2="&#x34;" k="-6" />
<hkern u1="&#x34;" u2="&#x31;" k="104" />
<hkern u1="&#x35;" u2="&#x37;" k="31" />
<hkern u1="&#x35;" u2="&#x31;" k="74" />
<hkern u1="&#x36;" u2="&#x37;" k="63" />
<hkern u1="&#x36;" u2="&#x34;" k="2" />
<hkern u1="&#x36;" u2="&#x31;" k="129" />
<hkern u1="&#x37;" u2="&#x3a;" k="84" />
<hkern u1="&#x37;" u2="&#x37;" k="6" />
<hkern u1="&#x37;" u2="&#x36;" k="119" />
<hkern u1="&#x37;" u2="&#x34;" k="127" />
<hkern u1="&#x37;" u2="&#x31;" k="49" />
<hkern u1="&#x37;" u2="&#x2e;" k="174" />
<hkern u1="&#x37;" u2="&#x2c;" k="184" />
<hkern u1="&#x38;" u2="&#x37;" k="37" />
<hkern u1="&#x38;" u2="&#x34;" k="2" />
<hkern u1="&#x38;" u2="&#x31;" k="78" />
<hkern u1="&#x39;" u2="&#x37;" k="37" />
<hkern u1="&#x39;" u2="&#x34;" k="31" />
<hkern u1="&#x39;" u2="&#x31;" k="82" />
<hkern u1="A" u2="&#x201d;" k="66" />
<hkern u1="A" u2="&#x2019;" k="66" />
<hkern u1="A" u2="y" k="20" />
<hkern u1="A" u2="w" k="16" />
<hkern u1="A" u2="v" k="18" />
<hkern u1="A" u2="u" k="2" />
<hkern u1="A" u2="t" k="-12" />
<hkern u1="A" u2="q" k="-12" />
<hkern u1="A" u2="o" k="-6" />
<hkern u1="A" u2="g" k="-10" />
<hkern u1="A" u2="e" k="-6" />
<hkern u1="A" u2="d" k="-10" />
<hkern u1="A" u2="c" k="-6" />
<hkern u1="A" u2="b" k="-23" />
<hkern u1="A" u2="a" k="-10" />
<hkern u1="A" u2="Y" k="72" />
<hkern u1="A" u2="W" k="31" />
<hkern u1="A" u2="V" k="35" />
<hkern u1="A" u2="T" k="33" />
<hkern u1="A" u2="Q" k="6" />
<hkern u1="A" u2="O" k="6" />
<hkern u1="A" u2="G" k="6" />
<hkern u1="A" u2="C" k="14" />
<hkern u1="A" u2="&#x2e;" k="-37" />
<hkern u1="A" u2="&#x2d;" k="-59" />
<hkern u1="A" u2="&#x2c;" k="-37" />
<hkern u1="B" u2="&#xd4;" k="6" />
<hkern u1="B" u2="&#xd3;" k="6" />
<hkern u1="B" u2="&#xd2;" k="6" />
<hkern u1="B" u2="&#xc3;" k="-6" />
<hkern u1="B" u2="&#xc2;" k="-6" />
<hkern u1="B" u2="&#xc1;" k="-6" />
<hkern u1="B" u2="Y" k="12" />
<hkern u1="B" u2="W" k="-4" />
<hkern u1="B" u2="V" k="-4" />
<hkern u1="B" u2="O" k="6" />
<hkern u1="B" u2="A" k="-6" />
<hkern u1="C" u2="&#xd3;" k="12" />
<hkern u1="C" u2="&#xc1;" k="-57" />
<hkern u1="C" u2="O" k="12" />
<hkern u1="C" u2="A" k="-57" />
<hkern u1="D" u2="&#xc3;" k="12" />
<hkern u1="D" u2="&#xc2;" k="12" />
<hkern u1="D" u2="&#xc1;" k="12" />
<hkern u1="D" u2="&#xc0;" k="12" />
<hkern u1="D" u2="Y" k="33" />
<hkern u1="D" u2="X" k="29" />
<hkern u1="D" u2="W" k="4" />
<hkern u1="D" u2="V" k="4" />
<hkern u1="D" u2="J" k="-12" />
<hkern u1="D" u2="A" k="12" />
<hkern u1="F" u2="&#xf3;" k="-4" />
<hkern u1="F" u2="&#xe9;" k="-12" />
<hkern u1="F" u2="&#xe1;" k="-2" />
<hkern u1="F" u2="&#xc3;" k="25" />
<hkern u1="F" u2="&#xc2;" k="25" />
<hkern u1="F" u2="&#xc1;" k="25" />
<hkern u1="F" u2="&#xc0;" k="25" />
<hkern u1="F" u2="u" k="14" />
<hkern u1="F" u2="r" k="14" />
<hkern u1="F" u2="o" k="-2" />
<hkern u1="F" u2="j" k="-25" />
<hkern u1="F" u2="i" k="-25" />
<hkern u1="F" u2="e" k="-2" />
<hkern u1="F" u2="a" k="-2" />
<hkern u1="F" u2="O" k="-6" />
<hkern u1="F" u2="J" k="70" />
<hkern u1="F" u2="A" k="25" />
<hkern u1="F" u2="&#x2e;" k="125" />
<hkern u1="F" u2="&#x2d;" k="-41" />
<hkern u1="F" u2="&#x2c;" k="135" />
<hkern u1="G" u2="Y" k="6" />
<hkern u1="G" u2="W" k="-14" />
<hkern u1="G" u2="V" k="-14" />
<hkern u1="G" u2="T" k="-29" />
<hkern u1="J" u2="A" k="-2" />
<hkern u1="K" u2="&#xf3;" k="16" />
<hkern u1="K" u2="&#xd3;" k="35" />
<hkern u1="K" u2="y" k="51" />
<hkern u1="K" u2="u" k="20" />
<hkern u1="K" u2="o" k="16" />
<hkern u1="K" u2="e" k="14" />
<hkern u1="K" u2="a" k="10" />
<hkern u1="K" u2="T" k="-72" />
<hkern u1="K" u2="S" k="-16" />
<hkern u1="K" u2="O" k="35" />
<hkern u1="K" u2="G" k="35" />
<hkern u1="K" u2="C" k="43" />
<hkern u1="K" u2="&#x2d;" k="-6" />
<hkern u1="L" u2="&#x201d;" k="123" />
<hkern u1="L" u2="&#x2019;" k="123" />
<hkern u1="L" u2="&#xc1;" k="-82" />
<hkern u1="L" u2="y" k="51" />
<hkern u1="L" u2="u" k="-12" />
<hkern u1="L" u2="Y" k="76" />
<hkern u1="L" u2="W" k="37" />
<hkern u1="L" u2="V" k="47" />
<hkern u1="L" u2="U" k="-14" />
<hkern u1="L" u2="T" k="35" />
<hkern u1="L" u2="S" k="-23" />
<hkern u1="L" u2="C" k="14" />
<hkern u1="L" u2="A" k="-82" />
<hkern u1="L" u2="&#x2d;" k="57" />
<hkern u1="N" u2="&#xf3;" k="-2" />
<hkern u1="N" u2="&#xe9;" k="-2" />
<hkern u1="N" u2="&#xe1;" k="-4" />
<hkern u1="N" u2="&#xd3;" k="-2" />
<hkern u1="N" u2="&#xc1;" k="-29" />
<hkern u1="N" u2="u" k="2" />
<hkern u1="N" u2="o" k="-2" />
<hkern u1="N" u2="e" k="-2" />
<hkern u1="N" u2="a" k="-4" />
<hkern u1="N" u2="O" k="-2" />
<hkern u1="N" u2="C" k="2" />
<hkern u1="N" u2="A" k="-29" />
<hkern u1="N" u2="&#x2e;" k="-2" />
<hkern u1="N" u2="&#x2c;" k="12" />
<hkern u1="O" u2="&#xc1;" k="4" />
<hkern u1="O" u2="Y" k="23" />
<hkern u1="O" u2="X" k="20" />
<hkern u1="O" u2="T" k="-14" />
<hkern u1="O" u2="A" k="4" />
<hkern u1="P" u2="&#xf3;" k="2" />
<hkern u1="P" u2="&#xe9;" k="-4" />
<hkern u1="P" u2="&#xe1;" k="6" />
<hkern u1="P" u2="&#xc1;" k="47" />
<hkern u1="P" u2="o" k="23" />
<hkern u1="P" u2="e" k="20" />
<hkern u1="P" u2="a" k="14" />
<hkern u1="P" u2="J" k="70" />
<hkern u1="P" u2="A" k="47" />
<hkern u1="P" u2="&#x2e;" k="178" />
<hkern u1="P" u2="&#x2d;" k="25" />
<hkern u1="P" u2="&#x2c;" k="188" />
<hkern u1="R" u2="&#xfa;" k="33" />
<hkern u1="R" u2="&#xf3;" k="31" />
<hkern u1="R" u2="&#xe9;" k="29" />
<hkern u1="R" u2="&#xe1;" k="23" />
<hkern u1="R" u2="&#xd3;" k="18" />
<hkern u1="R" u2="y" k="-14" />
<hkern u1="R" u2="u" k="33" />
<hkern u1="R" u2="o" k="31" />
<hkern u1="R" u2="e" k="29" />
<hkern u1="R" u2="a" k="23" />
<hkern u1="R" u2="Y" k="14" />
<hkern u1="R" u2="W" k="-2" />
<hkern u1="R" u2="V" k="-2" />
<hkern u1="R" u2="U" k="25" />
<hkern u1="R" u2="T" k="-20" />
<hkern u1="R" u2="O" k="18" />
<hkern u1="R" u2="G" k="20" />
<hkern u1="R" u2="C" k="23" />
<hkern u1="S" u2="&#xc1;" k="-23" />
<hkern u1="S" u2="t" k="16" />
<hkern u1="S" u2="Y" k="-18" />
<hkern u1="S" u2="W" k="-18" />
<hkern u1="S" u2="V" k="-20" />
<hkern u1="S" u2="T" k="-25" />
<hkern u1="S" u2="A" k="-23" />
<hkern u1="T" u2="&#xd5;" k="-14" />
<hkern u1="T" u2="&#xd4;" k="-14" />
<hkern u1="T" u2="&#xd3;" k="-14" />
<hkern u1="T" u2="&#xd2;" k="-14" />
<hkern u1="T" u2="&#xc3;" k="29" />
<hkern u1="T" u2="&#xc2;" k="29" />
<hkern u1="T" u2="&#xc1;" k="29" />
<hkern u1="T" u2="&#xc0;" k="29" />
<hkern u1="T" u2="y" k="39" />
<hkern u1="T" u2="w" k="43" />
<hkern u1="T" u2="v" k="39" />
<hkern u1="T" u2="u" k="63" />
<hkern u1="T" u2="s" k="66" />
<hkern u1="T" u2="r" k="55" />
<hkern u1="T" u2="o" k="59" />
<hkern u1="T" u2="j" k="-49" />
<hkern u1="T" u2="i" k="-49" />
<hkern u1="T" u2="g" k="55" />
<hkern u1="T" u2="e" k="59" />
<hkern u1="T" u2="c" k="59" />
<hkern u1="T" u2="a" k="55" />
<hkern u1="T" u2="Y" k="-92" />
<hkern u1="T" u2="W" k="-88" />
<hkern u1="T" u2="V" k="-92" />
<hkern u1="T" u2="S" k="-43" />
<hkern u1="T" u2="O" k="-14" />
<hkern u1="T" u2="J" k="23" />
<hkern u1="T" u2="G" k="-16" />
<hkern u1="T" u2="A" k="29" />
<hkern u1="T" u2="&#x3b;" k="47" />
<hkern u1="T" u2="&#x3a;" k="43" />
<hkern u1="T" u2="&#x2e;" k="55" />
<hkern u1="T" u2="&#x2d;" k="-4" />
<hkern u1="T" u2="&#x2c;" k="68" />
<hkern u1="U" u2="&#xc3;" k="2" />
<hkern u1="U" u2="&#xc2;" k="2" />
<hkern u1="U" u2="&#xc1;" k="2" />
<hkern u1="U" u2="r" k="2" />
<hkern u1="U" u2="p" k="4" />
<hkern u1="U" u2="n" k="2" />
<hkern u1="U" u2="m" k="2" />
<hkern u1="U" u2="A" k="2" />
<hkern u1="U" u2="&#x2e;" k="18" />
<hkern u1="U" u2="&#x2c;" k="31" />
<hkern u1="V" u2="&#xd5;" k="-2" />
<hkern u1="V" u2="&#xd4;" k="-2" />
<hkern u1="V" u2="&#xd3;" k="-2" />
<hkern u1="V" u2="&#xd2;" k="-2" />
<hkern u1="V" u2="&#xc3;" k="37" />
<hkern u1="V" u2="&#xc2;" k="37" />
<hkern u1="V" u2="&#xc1;" k="37" />
<hkern u1="V" u2="&#xc0;" k="37" />
<hkern u1="V" u2="y" k="-25" />
<hkern u1="V" u2="u" k="25" />
<hkern u1="V" u2="r" k="20" />
<hkern u1="V" u2="o" k="39" />
<hkern u1="V" u2="i" k="-33" />
<hkern u1="V" u2="g" k="35" />
<hkern u1="V" u2="e" k="39" />
<hkern u1="V" u2="a" k="35" />
<hkern u1="V" u2="T" k="-92" />
<hkern u1="V" u2="S" k="-25" />
<hkern u1="V" u2="O" k="-2" />
<hkern u1="V" u2="C" k="6" />
<hkern u1="V" u2="A" k="37" />
<hkern u1="V" u2="&#x3b;" k="16" />
<hkern u1="V" u2="&#x3a;" k="14" />
<hkern u1="V" u2="&#x2e;" k="66" />
<hkern u1="V" u2="&#x2d;" k="-20" />
<hkern u1="V" u2="&#x2c;" k="76" />
<hkern u1="W" u2="&#xd5;" k="-2" />
<hkern u1="W" u2="&#xd4;" k="-2" />
<hkern u1="W" u2="&#xd3;" k="-2" />
<hkern u1="W" u2="&#xd2;" k="-2" />
<hkern u1="W" u2="&#xc3;" k="35" />
<hkern u1="W" u2="&#xc2;" k="35" />
<hkern u1="W" u2="&#xc1;" k="35" />
<hkern u1="W" u2="&#xc0;" k="35" />
<hkern u1="W" u2="y" k="-29" />
<hkern u1="W" u2="u" k="23" />
<hkern u1="W" u2="r" k="20" />
<hkern u1="W" u2="o" k="35" />
<hkern u1="W" u2="i" k="-31" />
<hkern u1="W" u2="g" k="31" />
<hkern u1="W" u2="e" k="35" />
<hkern u1="W" u2="a" k="33" />
<hkern u1="W" u2="T" k="-88" />
<hkern u1="W" u2="S" k="-23" />
<hkern u1="W" u2="O" k="-2" />
<hkern u1="W" u2="G" k="2" />
<hkern u1="W" u2="C" k="6" />
<hkern u1="W" u2="A" k="35" />
<hkern u1="W" u2="&#x3b;" k="14" />
<hkern u1="W" u2="&#x3a;" k="12" />
<hkern u1="W" u2="&#x2e;" k="57" />
<hkern u1="W" u2="&#x2d;" k="-25" />
<hkern u1="W" u2="&#x2c;" k="68" />
<hkern u1="X" u2="y" k="23" />
<hkern u1="X" u2="u" k="10" />
<hkern u1="X" u2="o" k="4" />
<hkern u1="X" u2="e" k="2" />
<hkern u1="X" u2="Q" k="14" />
<hkern u1="X" u2="O" k="14" />
<hkern u1="X" u2="C" k="23" />
<hkern u1="X" u2="&#x2d;" k="-25" />
<hkern u1="Y" u2="&#xd5;" k="14" />
<hkern u1="Y" u2="&#xd4;" k="14" />
<hkern u1="Y" u2="&#xd3;" k="14" />
<hkern u1="Y" u2="&#xd2;" k="14" />
<hkern u1="Y" u2="&#xc3;" k="47" />
<hkern u1="Y" u2="&#xc2;" k="47" />
<hkern u1="Y" u2="&#xc1;" k="47" />
<hkern u1="Y" u2="&#xc0;" k="47" />
<hkern u1="Y" u2="u" k="53" />
<hkern u1="Y" u2="p" k="51" />
<hkern u1="Y" u2="o" k="70" />
<hkern u1="Y" u2="i" k="-23" />
<hkern u1="Y" u2="g" k="63" />
<hkern u1="Y" u2="e" k="68" />
<hkern u1="Y" u2="a" k="63" />
<hkern u1="Y" u2="T" k="-92" />
<hkern u1="Y" u2="S" k="-14" />
<hkern u1="Y" u2="O" k="14" />
<hkern u1="Y" u2="G" k="14" />
<hkern u1="Y" u2="C" k="25" />
<hkern u1="Y" u2="A" k="47" />
<hkern u1="Y" u2="&#x3b;" k="47" />
<hkern u1="Y" u2="&#x3a;" k="47" />
<hkern u1="Y" u2="&#x2e;" k="72" />
<hkern u1="Y" u2="&#x2d;" k="14" />
<hkern u1="Y" u2="&#x2c;" k="84" />
<hkern u1="Z" u2="y" k="20" />
<hkern u1="Z" u2="v" k="18" />
<hkern u1="a" u2="&#x2019;" k="2" />
<hkern u1="a" u2="y" k="-12" />
<hkern u1="a" u2="w" k="-6" />
<hkern u1="a" u2="v" k="-12" />
<hkern u1="a" u2="j" k="4" />
<hkern u1="b" u2="y" k="6" />
<hkern u1="b" u2="w" k="10" />
<hkern u1="b" u2="v" k="6" />
<hkern u1="c" u2="k" k="12" />
<hkern u1="c" u2="h" k="12" />
<hkern u1="e" u2="&#x2019;" k="14" />
<hkern u1="e" u2="y" k="12" />
<hkern u1="e" u2="x" k="14" />
<hkern u1="e" u2="w" k="12" />
<hkern u1="e" u2="v" k="12" />
<hkern u1="f" u2="&#x2019;" k="-23" />
<hkern u1="f" u2="&#xf3;" k="-2" />
<hkern u1="f" u2="&#xe9;" k="-2" />
<hkern u1="f" u2="&#xe1;" k="-10" />
<hkern u1="f" u2="t" k="-49" />
<hkern u1="f" u2="s" k="-29" />
<hkern u1="f" u2="o" k="-2" />
<hkern u1="f" u2="l" k="-12" />
<hkern u1="f" u2="j" k="-6" />
<hkern u1="f" u2="i" k="-6" />
<hkern u1="f" u2="f" k="-43" />
<hkern u1="f" u2="e" k="-2" />
<hkern u1="f" u2="a" k="-10" />
<hkern u1="g" u2="&#xf3;" k="2" />
<hkern u1="g" u2="r" k="4" />
<hkern u1="g" u2="l" k="4" />
<hkern u1="g" u2="a" k="-2" />
<hkern u1="h" u2="&#x2019;" k="14" />
<hkern u1="h" u2="y" k="10" />
<hkern u1="i" u2="j" k="4" />
<hkern u1="i" u2="T" k="-39" />
<hkern u1="k" u2="&#xf3;" k="31" />
<hkern u1="k" u2="&#xe9;" k="31" />
<hkern u1="k" u2="&#xe1;" k="20" />
<hkern u1="k" u2="u" k="6" />
<hkern u1="k" u2="s" k="-16" />
<hkern u1="k" u2="o" k="31" />
<hkern u1="k" u2="g" k="20" />
<hkern u1="k" u2="e" k="31" />
<hkern u1="k" u2="a" k="20" />
<hkern u1="k" u2="&#x2e;" k="-20" />
<hkern u1="k" u2="&#x2d;" k="16" />
<hkern u1="k" u2="&#x2c;" k="-25" />
<hkern u1="l" u2="y" k="-12" />
<hkern u1="l" u2="v" k="-12" />
<hkern u1="m" u2="y" k="6" />
<hkern u1="m" u2="w" k="10" />
<hkern u1="m" u2="v" k="6" />
<hkern u1="m" u2="p" k="4" />
<hkern u1="n" u2="&#x2019;" k="14" />
<hkern u1="n" u2="y" k="10" />
<hkern u1="n" u2="w" k="12" />
<hkern u1="n" u2="v" k="10" />
<hkern u1="n" u2="p" k="4" />
<hkern u1="n" u2="T" k="63" />
<hkern u1="o" u2="&#x2019;" k="16" />
<hkern u1="o" u2="y" k="14" />
<hkern u1="o" u2="x" k="23" />
<hkern u1="o" u2="w" k="14" />
<hkern u1="o" u2="v" k="12" />
<hkern u1="o" u2="t" k="2" />
<hkern u1="o" u2="T" k="66" />
<hkern u1="p" u2="y" k="10" />
<hkern u1="p" u2="t" k="-2" />
<hkern u1="q" u2="u" k="6" />
<hkern u1="q" u2="c" k="2" />
<hkern u1="r" u2="&#x2019;" k="-20" />
<hkern u1="r" u2="&#xf4;" k="-6" />
<hkern u1="r" u2="&#xf3;" k="-6" />
<hkern u1="r" u2="&#xf2;" k="-6" />
<hkern u1="r" u2="&#xea;" k="-6" />
<hkern u1="r" u2="&#xe9;" k="-6" />
<hkern u1="r" u2="&#xe8;" k="-6" />
<hkern u1="r" u2="&#xe2;" k="-12" />
<hkern u1="r" u2="&#xe1;" k="-12" />
<hkern u1="r" u2="&#xe0;" k="-12" />
<hkern u1="r" u2="z" k="-29" />
<hkern u1="r" u2="y" k="-53" />
<hkern u1="r" u2="x" k="-53" />
<hkern u1="r" u2="w" k="-51" />
<hkern u1="r" u2="v" k="-53" />
<hkern u1="r" u2="u" k="-4" />
<hkern u1="r" u2="t" k="-43" />
<hkern u1="r" u2="s" k="-29" />
<hkern u1="r" u2="r" k="-4" />
<hkern u1="r" u2="q" k="-10" />
<hkern u1="r" u2="p" k="-4" />
<hkern u1="r" u2="o" k="-6" />
<hkern u1="r" u2="n" k="-4" />
<hkern u1="r" u2="m" k="-4" />
<hkern u1="r" u2="l" k="-4" />
<hkern u1="r" u2="k" k="-4" />
<hkern u1="r" u2="j" k="-4" />
<hkern u1="r" u2="i" k="-4" />
<hkern u1="r" u2="h" k="-4" />
<hkern u1="r" u2="g" k="-12" />
<hkern u1="r" u2="f" k="-39" />
<hkern u1="r" u2="e" k="-6" />
<hkern u1="r" u2="d" k="-12" />
<hkern u1="r" u2="c" k="-6" />
<hkern u1="r" u2="a" k="-12" />
<hkern u1="r" u2="&#x3b;" k="-18" />
<hkern u1="r" u2="&#x3a;" k="-20" />
<hkern u1="r" u2="&#x2e;" k="66" />
<hkern u1="r" u2="&#x2d;" k="14" />
<hkern u1="r" u2="&#x2c;" k="74" />
<hkern u1="s" u2="&#x2019;" k="14" />
<hkern u1="s" u2="t" k="-10" />
<hkern u1="t" u2="&#x2019;" k="-20" />
<hkern u1="t" u2="&#xf3;" k="4" />
<hkern u1="t" u2="&#xe9;" k="2" />
<hkern u1="t" u2="&#xe1;" k="-2" />
<hkern u1="t" u2="o" k="4" />
<hkern u1="t" u2="e" k="2" />
<hkern u1="t" u2="a" k="-2" />
<hkern u1="t" u2="S" k="-25" />
<hkern u1="t" u2="&#x3b;" k="-16" />
<hkern u1="t" u2="&#x3a;" k="-18" />
<hkern u1="u" u2="&#x2019;" k="2" />
<hkern u1="v" u2="&#xf3;" k="12" />
<hkern u1="v" u2="&#xf2;" k="12" />
<hkern u1="v" u2="&#xea;" k="12" />
<hkern u1="v" u2="&#xe9;" k="12" />
<hkern u1="v" u2="&#xe8;" k="12" />
<hkern u1="v" u2="&#xe3;" k="6" />
<hkern u1="v" u2="&#xe2;" k="6" />
<hkern u1="v" u2="&#xe1;" k="6" />
<hkern u1="v" u2="&#xe0;" k="6" />
<hkern u1="v" u2="s" k="-12" />
<hkern u1="v" u2="o" k="12" />
<hkern u1="v" u2="l" k="-12" />
<hkern u1="v" u2="g" k="6" />
<hkern u1="v" u2="e" k="12" />
<hkern u1="v" u2="c" k="12" />
<hkern u1="v" u2="a" k="6" />
<hkern u1="v" u2="&#x3b;" k="-18" />
<hkern u1="v" u2="&#x3a;" k="-18" />
<hkern u1="v" u2="&#x2e;" k="59" />
<hkern u1="v" u2="&#x2d;" k="-39" />
<hkern u1="v" u2="&#x2c;" k="70" />
<hkern u1="w" u2="&#xf3;" k="14" />
<hkern u1="w" u2="&#xf2;" k="14" />
<hkern u1="w" u2="&#xea;" k="12" />
<hkern u1="w" u2="&#xe9;" k="12" />
<hkern u1="w" u2="&#xe8;" k="12" />
<hkern u1="w" u2="&#xe3;" k="10" />
<hkern u1="w" u2="&#xe2;" k="10" />
<hkern u1="w" u2="&#xe1;" k="10" />
<hkern u1="w" u2="&#xe0;" k="10" />
<hkern u1="w" u2="s" k="-10" />
<hkern u1="w" u2="o" k="14" />
<hkern u1="w" u2="l" k="-6" />
<hkern u1="w" u2="g" k="6" />
<hkern u1="w" u2="e" k="12" />
<hkern u1="w" u2="c" k="14" />
<hkern u1="w" u2="a" k="10" />
<hkern u1="w" u2="&#x3b;" k="-14" />
<hkern u1="w" u2="&#x3a;" k="-16" />
<hkern u1="w" u2="&#x2e;" k="53" />
<hkern u1="w" u2="&#x2d;" k="-41" />
<hkern u1="w" u2="&#x2c;" k="63" />
<hkern u1="x" u2="&#xe9;" k="31" />
<hkern u1="x" u2="q" k="20" />
<hkern u1="x" u2="o" k="31" />
<hkern u1="x" u2="e" k="31" />
<hkern u1="x" u2="c" k="29" />
<hkern u1="x" u2="a" k="20" />
<hkern u1="y" u2="&#xf3;" k="14" />
<hkern u1="y" u2="&#xf2;" k="14" />
<hkern u1="y" u2="&#xea;" k="14" />
<hkern u1="y" u2="&#xe9;" k="14" />
<hkern u1="y" u2="&#xe8;" k="14" />
<hkern u1="y" u2="&#xe3;" k="6" />
<hkern u1="y" u2="&#xe2;" k="6" />
<hkern u1="y" u2="&#xe1;" k="6" />
<hkern u1="y" u2="&#xe0;" k="6" />
<hkern u1="y" u2="s" k="-12" />
<hkern u1="y" u2="o" k="14" />
<hkern u1="y" u2="l" k="-12" />
<hkern u1="y" u2="g" k="6" />
<hkern u1="y" u2="e" k="14" />
<hkern u1="y" u2="c" k="14" />
<hkern u1="y" u2="a" k="6" />
<hkern u1="y" u2="&#x3b;" k="-18" />
<hkern u1="y" u2="&#x3a;" k="-18" />
<hkern u1="y" u2="&#x2e;" k="72" />
<hkern u1="y" u2="&#x2d;" k="-35" />
<hkern u1="y" u2="&#x2c;" k="82" />
<hkern u1="&#xc0;" u2="&#x201d;" k="66" />
<hkern u1="&#xc0;" u2="&#x2019;" k="66" />
<hkern u1="&#xc0;" u2="y" k="20" />
<hkern u1="&#xc0;" u2="w" k="16" />
<hkern u1="&#xc0;" u2="v" k="18" />
<hkern u1="&#xc0;" u2="u" k="2" />
<hkern u1="&#xc0;" u2="t" k="-12" />
<hkern u1="&#xc0;" u2="q" k="-12" />
<hkern u1="&#xc0;" u2="o" k="-6" />
<hkern u1="&#xc0;" u2="g" k="-10" />
<hkern u1="&#xc0;" u2="e" k="-6" />
<hkern u1="&#xc0;" u2="d" k="-10" />
<hkern u1="&#xc0;" u2="c" k="-6" />
<hkern u1="&#xc0;" u2="b" k="-23" />
<hkern u1="&#xc0;" u2="a" k="-10" />
<hkern u1="&#xc0;" u2="Y" k="72" />
<hkern u1="&#xc0;" u2="W" k="31" />
<hkern u1="&#xc0;" u2="V" k="35" />
<hkern u1="&#xc0;" u2="T" k="33" />
<hkern u1="&#xc0;" u2="Q" k="6" />
<hkern u1="&#xc0;" u2="O" k="6" />
<hkern u1="&#xc0;" u2="G" k="6" />
<hkern u1="&#xc0;" u2="C" k="14" />
<hkern u1="&#xc0;" u2="&#x2e;" k="-37" />
<hkern u1="&#xc0;" u2="&#x2d;" k="-59" />
<hkern u1="&#xc0;" u2="&#x2c;" k="-37" />
<hkern u1="&#xc1;" u2="&#x201d;" k="66" />
<hkern u1="&#xc1;" u2="&#x2019;" k="66" />
<hkern u1="&#xc1;" u2="y" k="20" />
<hkern u1="&#xc1;" u2="w" k="16" />
<hkern u1="&#xc1;" u2="v" k="18" />
<hkern u1="&#xc1;" u2="u" k="2" />
<hkern u1="&#xc1;" u2="t" k="-12" />
<hkern u1="&#xc1;" u2="q" k="-12" />
<hkern u1="&#xc1;" u2="o" k="-6" />
<hkern u1="&#xc1;" u2="g" k="-10" />
<hkern u1="&#xc1;" u2="e" k="-6" />
<hkern u1="&#xc1;" u2="d" k="-10" />
<hkern u1="&#xc1;" u2="c" k="-6" />
<hkern u1="&#xc1;" u2="b" k="-23" />
<hkern u1="&#xc1;" u2="a" k="-10" />
<hkern u1="&#xc1;" u2="Y" k="72" />
<hkern u1="&#xc1;" u2="W" k="31" />
<hkern u1="&#xc1;" u2="V" k="35" />
<hkern u1="&#xc1;" u2="T" k="33" />
<hkern u1="&#xc1;" u2="Q" k="6" />
<hkern u1="&#xc1;" u2="O" k="6" />
<hkern u1="&#xc1;" u2="G" k="6" />
<hkern u1="&#xc1;" u2="C" k="14" />
<hkern u1="&#xc1;" u2="&#x2e;" k="-37" />
<hkern u1="&#xc1;" u2="&#x2d;" k="-59" />
<hkern u1="&#xc1;" u2="&#x2c;" k="-37" />
<hkern u1="&#xc2;" u2="&#x201d;" k="66" />
<hkern u1="&#xc2;" u2="&#x2019;" k="66" />
<hkern u1="&#xc2;" u2="y" k="20" />
<hkern u1="&#xc2;" u2="w" k="16" />
<hkern u1="&#xc2;" u2="v" k="18" />
<hkern u1="&#xc2;" u2="u" k="2" />
<hkern u1="&#xc2;" u2="t" k="-12" />
<hkern u1="&#xc2;" u2="q" k="-12" />
<hkern u1="&#xc2;" u2="o" k="-6" />
<hkern u1="&#xc2;" u2="g" k="-10" />
<hkern u1="&#xc2;" u2="e" k="-6" />
<hkern u1="&#xc2;" u2="d" k="-10" />
<hkern u1="&#xc2;" u2="c" k="-6" />
<hkern u1="&#xc2;" u2="b" k="-23" />
<hkern u1="&#xc2;" u2="a" k="-10" />
<hkern u1="&#xc2;" u2="Y" k="72" />
<hkern u1="&#xc2;" u2="W" k="31" />
<hkern u1="&#xc2;" u2="V" k="35" />
<hkern u1="&#xc2;" u2="T" k="33" />
<hkern u1="&#xc2;" u2="Q" k="6" />
<hkern u1="&#xc2;" u2="O" k="6" />
<hkern u1="&#xc2;" u2="G" k="6" />
<hkern u1="&#xc2;" u2="C" k="14" />
<hkern u1="&#xc2;" u2="&#x2e;" k="-37" />
<hkern u1="&#xc2;" u2="&#x2d;" k="-59" />
<hkern u1="&#xc2;" u2="&#x2c;" k="-37" />
<hkern u1="&#xc3;" u2="&#x201d;" k="66" />
<hkern u1="&#xc3;" u2="&#x2019;" k="66" />
<hkern u1="&#xc3;" u2="y" k="20" />
<hkern u1="&#xc3;" u2="w" k="16" />
<hkern u1="&#xc3;" u2="v" k="18" />
<hkern u1="&#xc3;" u2="u" k="2" />
<hkern u1="&#xc3;" u2="t" k="-12" />
<hkern u1="&#xc3;" u2="q" k="-12" />
<hkern u1="&#xc3;" u2="o" k="-6" />
<hkern u1="&#xc3;" u2="g" k="-10" />
<hkern u1="&#xc3;" u2="e" k="-6" />
<hkern u1="&#xc3;" u2="d" k="-10" />
<hkern u1="&#xc3;" u2="c" k="-6" />
<hkern u1="&#xc3;" u2="b" k="-23" />
<hkern u1="&#xc3;" u2="a" k="-10" />
<hkern u1="&#xc3;" u2="Y" k="72" />
<hkern u1="&#xc3;" u2="W" k="31" />
<hkern u1="&#xc3;" u2="V" k="35" />
<hkern u1="&#xc3;" u2="T" k="33" />
<hkern u1="&#xc3;" u2="Q" k="6" />
<hkern u1="&#xc3;" u2="O" k="6" />
<hkern u1="&#xc3;" u2="G" k="6" />
<hkern u1="&#xc3;" u2="C" k="14" />
<hkern u1="&#xc3;" u2="&#x2e;" k="-37" />
<hkern u1="&#xc3;" u2="&#x2d;" k="-59" />
<hkern u1="&#xc3;" u2="&#x2c;" k="-37" />
<hkern u1="&#xd2;" u2="&#xc1;" k="4" />
<hkern u1="&#xd2;" u2="Y" k="23" />
<hkern u1="&#xd2;" u2="X" k="20" />
<hkern u1="&#xd2;" u2="T" k="-14" />
<hkern u1="&#xd2;" u2="A" k="4" />
<hkern u1="&#xd3;" u2="&#xc1;" k="4" />
<hkern u1="&#xd3;" u2="Y" k="23" />
<hkern u1="&#xd3;" u2="X" k="20" />
<hkern u1="&#xd3;" u2="T" k="-14" />
<hkern u1="&#xd3;" u2="A" k="4" />
<hkern u1="&#xd4;" u2="&#xc1;" k="4" />
<hkern u1="&#xd4;" u2="Y" k="23" />
<hkern u1="&#xd4;" u2="X" k="20" />
<hkern u1="&#xd4;" u2="T" k="-14" />
<hkern u1="&#xd4;" u2="A" k="4" />
<hkern u1="&#xd5;" u2="&#xc1;" k="4" />
<hkern u1="&#xd5;" u2="Y" k="23" />
<hkern u1="&#xd5;" u2="X" k="20" />
<hkern u1="&#xd5;" u2="T" k="-14" />
<hkern u1="&#xd5;" u2="A" k="4" />
<hkern u1="&#xd9;" u2="&#xc3;" k="2" />
<hkern u1="&#xd9;" u2="&#xc2;" k="2" />
<hkern u1="&#xd9;" u2="&#xc1;" k="2" />
<hkern u1="&#xd9;" u2="r" k="2" />
<hkern u1="&#xd9;" u2="p" k="4" />
<hkern u1="&#xd9;" u2="n" k="2" />
<hkern u1="&#xd9;" u2="m" k="2" />
<hkern u1="&#xd9;" u2="A" k="2" />
<hkern u1="&#xd9;" u2="&#x2e;" k="18" />
<hkern u1="&#xd9;" u2="&#x2c;" k="31" />
<hkern u1="&#xda;" u2="&#xc3;" k="2" />
<hkern u1="&#xda;" u2="&#xc2;" k="2" />
<hkern u1="&#xda;" u2="&#xc1;" k="2" />
<hkern u1="&#xda;" u2="r" k="2" />
<hkern u1="&#xda;" u2="p" k="4" />
<hkern u1="&#xda;" u2="n" k="2" />
<hkern u1="&#xda;" u2="m" k="2" />
<hkern u1="&#xda;" u2="A" k="2" />
<hkern u1="&#xda;" u2="&#x2e;" k="18" />
<hkern u1="&#xda;" u2="&#x2c;" k="31" />
<hkern u1="&#xdd;" u2="&#xd5;" k="14" />
<hkern u1="&#xdd;" u2="&#xd4;" k="14" />
<hkern u1="&#xdd;" u2="&#xd3;" k="14" />
<hkern u1="&#xdd;" u2="&#xd2;" k="14" />
<hkern u1="&#xdd;" u2="&#xc3;" k="47" />
<hkern u1="&#xdd;" u2="&#xc2;" k="47" />
<hkern u1="&#xdd;" u2="&#xc1;" k="47" />
<hkern u1="&#xdd;" u2="&#xc0;" k="47" />
<hkern u1="&#xdd;" u2="u" k="53" />
<hkern u1="&#xdd;" u2="p" k="51" />
<hkern u1="&#xdd;" u2="o" k="70" />
<hkern u1="&#xdd;" u2="i" k="-23" />
<hkern u1="&#xdd;" u2="g" k="63" />
<hkern u1="&#xdd;" u2="e" k="68" />
<hkern u1="&#xdd;" u2="a" k="63" />
<hkern u1="&#xdd;" u2="T" k="-92" />
<hkern u1="&#xdd;" u2="S" k="-14" />
<hkern u1="&#xdd;" u2="O" k="14" />
<hkern u1="&#xdd;" u2="G" k="14" />
<hkern u1="&#xdd;" u2="C" k="25" />
<hkern u1="&#xdd;" u2="A" k="47" />
<hkern u1="&#xdd;" u2="&#x3b;" k="47" />
<hkern u1="&#xdd;" u2="&#x3a;" k="47" />
<hkern u1="&#xdd;" u2="&#x2e;" k="72" />
<hkern u1="&#xdd;" u2="&#x2d;" k="14" />
<hkern u1="&#xdd;" u2="&#x2c;" k="84" />
<hkern u1="&#xe0;" u2="&#x2019;" k="2" />
<hkern u1="&#xe0;" u2="y" k="-12" />
<hkern u1="&#xe0;" u2="w" k="-6" />
<hkern u1="&#xe0;" u2="v" k="-12" />
<hkern u1="&#xe0;" u2="j" k="4" />
<hkern u1="&#xe1;" u2="&#x2019;" k="2" />
<hkern u1="&#xe1;" u2="y" k="-12" />
<hkern u1="&#xe1;" u2="w" k="-6" />
<hkern u1="&#xe1;" u2="v" k="-12" />
<hkern u1="&#xe1;" u2="j" k="4" />
<hkern u1="&#xe2;" u2="&#x2019;" k="2" />
<hkern u1="&#xe2;" u2="y" k="-12" />
<hkern u1="&#xe2;" u2="w" k="-6" />
<hkern u1="&#xe2;" u2="v" k="-12" />
<hkern u1="&#xe2;" u2="j" k="4" />
<hkern u1="&#xe3;" u2="j" k="4" />
<hkern u1="&#xe3;" u2="&#x2019;" k="2" />
<hkern u1="&#xe3;" u2="w" k="-6" />
<hkern u1="&#xe3;" u2="y" k="-12" />
<hkern u1="&#xe3;" u2="v" k="-12" />
<hkern u1="&#xe8;" u2="&#x2019;" k="14" />
<hkern u1="&#xe8;" u2="x" k="14" />
<hkern u1="&#xe8;" u2="v" k="12" />
<hkern u1="&#xe8;" u2="y" k="12" />
<hkern u1="&#xe8;" u2="w" k="12" />
<hkern u1="&#xe9;" u2="y" k="12" />
<hkern u1="&#xe9;" u2="w" k="12" />
<hkern u1="&#xe9;" u2="x" k="14" />
<hkern u1="&#xe9;" u2="&#x2019;" k="14" />
<hkern u1="&#xe9;" u2="v" k="12" />
<hkern u1="&#xea;" u2="&#x2019;" k="14" />
<hkern u1="&#xea;" u2="x" k="14" />
<hkern u1="&#xea;" u2="v" k="12" />
<hkern u1="&#xea;" u2="w" k="12" />
<hkern u1="&#xea;" u2="y" k="12" />
<hkern u1="&#xf2;" u2="&#x2019;" k="16" />
<hkern u1="&#xf2;" u2="x" k="23" />
<hkern u1="&#xf2;" u2="v" k="12" />
<hkern u1="&#xf2;" u2="T" k="66" />
<hkern u1="&#xf2;" u2="y" k="14" />
<hkern u1="&#xf2;" u2="t" k="2" />
<hkern u1="&#xf2;" u2="w" k="14" />
<hkern u1="&#xf3;" u2="y" k="14" />
<hkern u1="&#xf3;" u2="w" k="14" />
<hkern u1="&#xf3;" u2="t" k="2" />
<hkern u1="&#xf3;" u2="&#x2019;" k="16" />
<hkern u1="&#xf3;" u2="v" k="12" />
<hkern u1="&#xf3;" u2="T" k="66" />
<hkern u1="&#xf3;" u2="x" k="23" />
<hkern u1="&#xf4;" u2="&#x2019;" k="16" />
<hkern u1="&#xf4;" u2="x" k="23" />
<hkern u1="&#xf4;" u2="v" k="12" />
<hkern u1="&#xf4;" u2="T" k="66" />
<hkern u1="&#xf4;" u2="w" k="14" />
<hkern u1="&#xf4;" u2="t" k="2" />
<hkern u1="&#xf4;" u2="y" k="14" />
<hkern u1="&#xf5;" u2="y" k="14" />
<hkern u1="&#xf5;" u2="w" k="14" />
<hkern u1="&#xf5;" u2="t" k="2" />
<hkern u1="&#xf5;" u2="x" k="23" />
<hkern u1="&#xf5;" u2="T" k="66" />
<hkern u1="&#xf5;" u2="v" k="12" />
<hkern u1="&#xf5;" u2="&#x2019;" k="16" />
<hkern u1="&#xf9;" u2="&#x2019;" k="2" />
<hkern u1="&#xfa;" u2="&#x2019;" k="2" />
<hkern u1="&#xfd;" u2="&#xf3;" k="14" />
<hkern u1="&#xfd;" u2="&#xea;" k="14" />
<hkern u1="&#xfd;" u2="&#xe8;" k="14" />
<hkern u1="&#xfd;" u2="&#xe3;" k="6" />
<hkern u1="&#xfd;" u2="&#xe1;" k="6" />
<hkern u1="&#xfd;" u2="s" k="-12" />
<hkern u1="&#xfd;" u2="l" k="-12" />
<hkern u1="&#xfd;" u2="e" k="14" />
<hkern u1="&#xfd;" u2="a" k="6" />
<hkern u1="&#xfd;" u2="&#x3a;" k="-18" />
<hkern u1="&#xfd;" u2="&#x2d;" k="-35" />
<hkern u1="&#xfd;" u2="&#xf2;" k="14" />
<hkern u1="&#xfd;" u2="&#xe2;" k="6" />
<hkern u1="&#xfd;" u2="o" k="14" />
<hkern u1="&#xfd;" u2="c" k="14" />
<hkern u1="&#xfd;" u2="&#x2e;" k="72" />
<hkern u1="&#xfd;" u2="g" k="6" />
<hkern u1="&#xfd;" u2="&#x2c;" k="82" />
<hkern u1="&#xfd;" u2="&#xe9;" k="14" />
<hkern u1="&#xfd;" u2="&#x3b;" k="-18" />
<hkern u1="&#xfd;" u2="&#xe0;" k="6" />
<hkern u1="&#x102;" u2="&#x201d;" k="66" />
<hkern u1="&#x102;" u2="y" k="20" />
<hkern u1="&#x102;" u2="v" k="18" />
<hkern u1="&#x102;" u2="t" k="-12" />
<hkern u1="&#x102;" u2="o" k="-6" />
<hkern u1="&#x102;" u2="e" k="-6" />
<hkern u1="&#x102;" u2="c" k="-6" />
<hkern u1="&#x102;" u2="a" k="-10" />
<hkern u1="&#x102;" u2="W" k="31" />
<hkern u1="&#x102;" u2="T" k="33" />
<hkern u1="&#x102;" u2="O" k="6" />
<hkern u1="&#x102;" u2="C" k="14" />
<hkern u1="&#x102;" u2="&#x2d;" k="-59" />
<hkern u1="&#x102;" u2="w" k="16" />
<hkern u1="&#x102;" u2="q" k="-12" />
<hkern u1="&#x102;" u2="d" k="-10" />
<hkern u1="&#x102;" u2="Y" k="72" />
<hkern u1="&#x102;" u2="Q" k="6" />
<hkern u1="&#x102;" u2="&#x2e;" k="-37" />
<hkern u1="&#x102;" u2="g" k="-10" />
<hkern u1="&#x102;" u2="V" k="35" />
<hkern u1="&#x102;" u2="&#x2c;" k="-37" />
<hkern u1="&#x102;" u2="&#x2019;" k="66" />
<hkern u1="&#x102;" u2="b" k="-23" />
<hkern u1="&#x102;" u2="u" k="2" />
<hkern u1="&#x102;" u2="G" k="6" />
<hkern u1="&#x103;" u2="&#x2019;" k="2" />
<hkern u1="&#x103;" u2="w" k="-6" />
<hkern u1="&#x103;" u2="j" k="4" />
<hkern u1="&#x103;" u2="y" k="-12" />
<hkern u1="&#x103;" u2="v" k="-12" />
<hkern u1="&#x2018;" u2="&#xc1;" k="90" />
<hkern u1="&#x2018;" u2="W" k="-39" />
<hkern u1="&#x2018;" u2="T" k="-43" />
<hkern u1="&#x2018;" u2="Y" k="-43" />
<hkern u1="&#x2018;" u2="A" k="90" />
<hkern u1="&#x2018;" u2="V" k="-43" />
<hkern u1="&#x2019;" u2="y" k="14" />
<hkern u1="&#x2019;" u2="v" k="12" />
<hkern u1="&#x2019;" u2="s" k="37" />
<hkern u1="&#x2019;" u2="o" k="59" />
<hkern u1="&#x2019;" u2="A" k="82" />
<hkern u1="&#x2019;" u2="&#x2c;" k="117" />
<hkern u1="&#x2019;" u2="&#xc1;" k="82" />
<hkern u1="&#x2019;" u2="t" k="18" />
<hkern u1="&#x2019;" u2="d" k="51" />
<hkern u1="&#x2019;" u2="r" k="43" />
<hkern u1="&#x2019;" u2="w" k="16" />
<hkern u1="&#x2019;" u2="&#x2e;" k="102" />
<hkern u1="&#x201c;" u2="&#xc1;" k="90" />
<hkern u1="&#x201c;" u2="W" k="-39" />
<hkern u1="&#x201c;" u2="T" k="-43" />
<hkern u1="&#x201c;" u2="Y" k="-43" />
<hkern u1="&#x201c;" u2="A" k="90" />
<hkern u1="&#x201c;" u2="V" k="-43" />
<hkern u1="&#x201d;" u2="Y" k="-51" />
<hkern u1="&#x201d;" u2="V" k="-51" />
<hkern u1="&#x201d;" u2="A" k="82" />
<hkern u1="&#x201d;" u2="W" k="-49" />
<hkern u1="&#x201d;" u2="&#xc1;" k="82" />
<hkern u1="&#x201d;" u2="T" k="-51" />
</font>
</defs></svg> 