[Date 05/08/2016 14:31:26:75]
   at WizardCMS.Helpers.StringHelper.field_content(Dictionary`2 ContentTranslates, String field, Boolean reverse) in C:\Users\MrPeo\Desktop\WizardCMS\WizardCMS\Helpers\StringHelper.cs:line 714
-----------------------------------------------
