[Date 06/04/2018 12:26:48:76]
   at WizardCMS.Helpers.StringHelper.field_content(Dictionary`2 ContentTranslates, String field, Boolean reverse) in F:\Projects\MBS-Website\WIP\Sources\WizardCMS\Helpers\StringHelper.cs:line 714
-----------------------------------------------
[Date 06/04/2018 12:17:12:00]
   at WizardCMS.Helpers.StringHelper.field_content(Dictionary`2 ContentTranslates, String field, Boolean reverse) in F:\Projects\MBS-Website\WIP\Sources\WizardCMS\Helpers\StringHelper.cs:line 714
-----------------------------------------------
[Date 06/04/2018 12:06:23:09]
   at WizardCMS.Helpers.StringHelper.field_content(Dictionary`2 ContentTranslates, String field, Boolean reverse) in F:\Projects\MBS-Website\WIP\Sources\WizardCMS\Helpers\StringHelper.cs:line 714
-----------------------------------------------
[Date 06/04/2018 12:02:23:41]
   at WizardCMS.Helpers.StringHelper.field_content(Dictionary`2 ContentTranslates, String field, Boolean reverse) in F:\Projects\MBS-Website\WIP\Sources\WizardCMS\Helpers\StringHelper.cs:line 714
-----------------------------------------------
[Date 06/04/2018 10:59:51:34]
   at WizardCMS.Helpers.StringHelper.field_content(Dictionary`2 ContentTranslates, String field, Boolean reverse) in F:\Projects\MBS-Website\WIP\Sources\WizardCMS\Helpers\StringHelper.cs:line 714
-----------------------------------------------
