[Date 07/04/2017 15:18:09:44]
   at WizardCMS.Helpers.StringHelper.field_content(Dictionary`2 ContentTranslates, String field, Boolean reverse) in F:\Projects\MBS-Website\WIP\Sources\WizardCMS\Helpers\StringHelper.cs:line 714
-----------------------------------------------
[Date 07/04/2017 15:17:49:16]
   at WizardCMS.Helpers.StringHelper.field_content(Dictionary`2 ContentTranslates, String field, Boolean reverse) in F:\Projects\MBS-Website\WIP\Sources\WizardCMS\Helpers\StringHelper.cs:line 714
-----------------------------------------------
[Date 07/04/2017 15:16:31:74]
   at WizardCMS.Helpers.StringHelper.field_content(Dictionary`2 ContentTranslates, String field, Boolean reverse) in F:\Projects\MBS-Website\WIP\Sources\WizardCMS\Helpers\StringHelper.cs:line 714
-----------------------------------------------
[Date 07/04/2017 14:37:57:63]
   at WizardCMS.Helpers.StringHelper.field_content(Dictionary`2 ContentTranslates, String field, Boolean reverse) in F:\Projects\MBS-Website\WIP\Sources\WizardCMS\Helpers\StringHelper.cs:line 714
-----------------------------------------------
[Date 07/04/2017 14:16:58:77]
   at WizardCMS.Helpers.StringHelper.field_content(Dictionary`2 ContentTranslates, String field, Boolean reverse) in F:\Projects\MBS-Website\WIP\Sources\WizardCMS\Helpers\StringHelper.cs:line 714
-----------------------------------------------
[Date 07/04/2017 14:07:00:63]
   at WizardCMS.Helpers.StringHelper.field_content(Dictionary`2 ContentTranslates, String field, Boolean reverse) in F:\Projects\MBS-Website\WIP\Sources\WizardCMS\Helpers\StringHelper.cs:line 714
-----------------------------------------------
[Date 07/04/2017 13:48:23:68]
   at WizardCMS.Helpers.StringHelper.field_content(Dictionary`2 ContentTranslates, String field, Boolean reverse) in F:\Projects\MBS-Website\WIP\Sources\WizardCMS\Helpers\StringHelper.cs:line 714
-----------------------------------------------
[Date 07/04/2017 13:46:02:54]
   at WizardCMS.Helpers.StringHelper.field_content(Dictionary`2 ContentTranslates, String field, Boolean reverse) in F:\Projects\MBS-Website\WIP\Sources\WizardCMS\Helpers\StringHelper.cs:line 714
-----------------------------------------------
[Date 07/04/2017 13:38:01:75]
   at WizardCMS.Helpers.StringHelper.field_content(Dictionary`2 ContentTranslates, String field, Boolean reverse) in F:\Projects\MBS-Website\WIP\Sources\WizardCMS\Helpers\StringHelper.cs:line 714
-----------------------------------------------
[Date 07/04/2017 13:31:59:64]
   at WizardCMS.Helpers.StringHelper.field_content(Dictionary`2 ContentTranslates, String field, Boolean reverse) in F:\Projects\MBS-Website\WIP\Sources\WizardCMS\Helpers\StringHelper.cs:line 714
-----------------------------------------------
[Date 07/04/2017 13:27:09:90]
   at WizardCMS.Helpers.StringHelper.field_content(Dictionary`2 ContentTranslates, String field, Boolean reverse) in F:\Projects\MBS-Website\WIP\Sources\WizardCMS\Helpers\StringHelper.cs:line 714
-----------------------------------------------
[Date 07/04/2017 13:26:36:52]
   at WizardCMS.Helpers.StringHelper.field_content(Dictionary`2 ContentTranslates, String field, Boolean reverse) in F:\Projects\MBS-Website\WIP\Sources\WizardCMS\Helpers\StringHelper.cs:line 714
-----------------------------------------------
[Date 07/04/2017 12:24:47:95]
   at WizardCMS.Helpers.StringHelper.field_content(Dictionary`2 ContentTranslates, String field, Boolean reverse) in F:\Projects\MBS-Website\WIP\Sources\WizardCMS\Helpers\StringHelper.cs:line 714
-----------------------------------------------
[Date 07/04/2017 12:22:21:74]
   at WizardCMS.Helpers.StringHelper.field_content(Dictionary`2 ContentTranslates, String field, Boolean reverse) in F:\Projects\MBS-Website\WIP\Sources\WizardCMS\Helpers\StringHelper.cs:line 714
-----------------------------------------------
[Date 07/04/2017 12:15:44:31]
   at WizardCMS.Helpers.StringHelper.field_content(Dictionary`2 ContentTranslates, String field, Boolean reverse) in F:\Projects\MBS-Website\WIP\Sources\WizardCMS\Helpers\StringHelper.cs:line 714
-----------------------------------------------
[Date 07/04/2017 12:12:54:68]
   at WizardCMS.Helpers.StringHelper.field_content(Dictionary`2 ContentTranslates, String field, Boolean reverse) in F:\Projects\MBS-Website\WIP\Sources\WizardCMS\Helpers\StringHelper.cs:line 714
-----------------------------------------------
[Date 07/04/2017 12:04:55:79]
   at WizardCMS.Helpers.StringHelper.field_content(Dictionary`2 ContentTranslates, String field, Boolean reverse) in F:\Projects\MBS-Website\WIP\Sources\WizardCMS\Helpers\StringHelper.cs:line 714
-----------------------------------------------
[Date 07/04/2017 12:04:49:22]
   at WizardCMS.Helpers.StringHelper.field_content(Dictionary`2 ContentTranslates, String field, Boolean reverse) in F:\Projects\MBS-Website\WIP\Sources\WizardCMS\Helpers\StringHelper.cs:line 714
-----------------------------------------------
[Date 07/04/2017 12:04:16:41]
   at WizardCMS.Helpers.StringHelper.field_content(Dictionary`2 ContentTranslates, String field, Boolean reverse) in F:\Projects\MBS-Website\WIP\Sources\WizardCMS\Helpers\StringHelper.cs:line 714
-----------------------------------------------
[Date 07/04/2017 11:50:31:20]
   at WizardCMS.Helpers.StringHelper.field_content(Dictionary`2 ContentTranslates, String field, Boolean reverse) in F:\Projects\MBS-Website\WIP\Sources\WizardCMS\Helpers\StringHelper.cs:line 714
-----------------------------------------------
[Date 07/04/2017 11:48:52:73]
   at WizardCMS.Helpers.StringHelper.field_content(Dictionary`2 ContentTranslates, String field, Boolean reverse) in F:\Projects\MBS-Website\WIP\Sources\WizardCMS\Helpers\StringHelper.cs:line 714
-----------------------------------------------
[Date 07/04/2017 11:46:46:05]
   at WizardCMS.Helpers.StringHelper.field_content(Dictionary`2 ContentTranslates, String field, Boolean reverse) in F:\Projects\MBS-Website\WIP\Sources\WizardCMS\Helpers\StringHelper.cs:line 714
-----------------------------------------------
[Date 07/04/2017 11:44:57:65]
   at WizardCMS.Helpers.StringHelper.field_content(Dictionary`2 ContentTranslates, String field, Boolean reverse) in F:\Projects\MBS-Website\WIP\Sources\WizardCMS\Helpers\StringHelper.cs:line 714
-----------------------------------------------
[Date 07/04/2017 11:06:04:53]
   at WizardCMS.Helpers.StringHelper.field_content(Dictionary`2 ContentTranslates, String field, Boolean reverse) in F:\Projects\MBS-Website\WIP\Sources\WizardCMS\Helpers\StringHelper.cs:line 714
-----------------------------------------------
[Date 07/04/2017 11:03:19:24]
   at WizardCMS.Helpers.StringHelper.field_content(Dictionary`2 ContentTranslates, String field, Boolean reverse) in F:\Projects\MBS-Website\WIP\Sources\WizardCMS\Helpers\StringHelper.cs:line 714
-----------------------------------------------
[Date 07/04/2017 11:03:15:54]
   at WizardCMS.Helpers.StringHelper.field_content(Dictionary`2 ContentTranslates, String field, Boolean reverse) in F:\Projects\MBS-Website\WIP\Sources\WizardCMS\Helpers\StringHelper.cs:line 714
-----------------------------------------------
[Date 07/04/2017 11:03:10:68]
   at WizardCMS.Helpers.StringHelper.field_content(Dictionary`2 ContentTranslates, String field, Boolean reverse) in F:\Projects\MBS-Website\WIP\Sources\WizardCMS\Helpers\StringHelper.cs:line 714
-----------------------------------------------
[Date 07/04/2017 10:55:22:67]
   at WizardCMS.Helpers.StringHelper.field_content(Dictionary`2 ContentTranslates, String field, Boolean reverse) in F:\Projects\MBS-Website\WIP\Sources\WizardCMS\Helpers\StringHelper.cs:line 714
-----------------------------------------------
[Date 07/04/2017 10:42:09:10]
   at System.Drawing.Image.FromFile(String filename, Boolean useEmbeddedColorManagement)
   at System.Drawing.Image.FromFile(String filename)
   at WizardCMS.Helpers.CommonHelper.Img2(String input, Int32 width, Int32 height, Int32 noImgCode) in F:\Projects\MBS-Website\WIP\Sources\WizardCMS\Helpers\CommonHelper.cs:line 322
-----------------------------------------------
[Date 07/04/2017 10:41:18:64]
   at System.Drawing.Image.FromFile(String filename, Boolean useEmbeddedColorManagement)
   at System.Drawing.Image.FromFile(String filename)
   at WizardCMS.Helpers.CommonHelper.Img2(String input, Int32 width, Int32 height, Int32 noImgCode) in F:\Projects\MBS-Website\WIP\Sources\WizardCMS\Helpers\CommonHelper.cs:line 322
-----------------------------------------------
[Date 07/04/2017 10:23:31:46]
   at WizardCMS.Helpers.StringHelper.field_content(Dictionary`2 ContentTranslates, String field, Boolean reverse) in F:\Projects\MBS-Website\WIP\Sources\WizardCMS\Helpers\StringHelper.cs:line 714
-----------------------------------------------
