[Date 17/04/2015 16:13:04:52]
AbsoluteUri 2: http://localhost:58452/vi/quan-he-co-dong/bao-cao-tai-chinh
-----------------------------------------------
[Date 17/04/2015 16:13:04:52]
AbsoluteUri: http://localhost:58452/vi/quan-he-co-dong/bao-cao-tai-chinh
-----------------------------------------------
[Date 17/04/2015 16:13:04:52]
AbsoluteUri 2: http://localhost:58452/vi/quan-he-co-dong/bao-cao-tai-chinh
-----------------------------------------------
[Date 17/04/2015 16:13:04:51]
AbsoluteUri: http://localhost:58452/vi/quan-he-co-dong/bao-cao-tai-chinh
-----------------------------------------------
[Date 17/04/2015 16:13:04:51]
AbsoluteUri 2: http://localhost:58452/vi/quan-he-co-dong/bao-cao-tai-chinh
-----------------------------------------------
[Date 17/04/2015 16:13:04:51]
AbsoluteUri: http://localhost:58452/vi/quan-he-co-dong/bao-cao-tai-chinh
-----------------------------------------------
[Date 17/04/2015 16:13:04:50]
AbsoluteUri 2: http://localhost:58452/vi/quan-he-co-dong/bao-cao-tai-chinh
-----------------------------------------------
[Date 17/04/2015 16:13:04:50]
AbsoluteUri: http://localhost:58452/vi/quan-he-co-dong/bao-cao-tai-chinh
-----------------------------------------------
[Date 17/04/2015 16:13:04:50]
AbsoluteUri 2: http://localhost:58452/vi/quan-he-co-dong/bao-cao-tai-chinh
-----------------------------------------------
[Date 17/04/2015 16:13:04:50]
AbsoluteUri: http://localhost:58452/vi/quan-he-co-dong/bao-cao-tai-chinh
-----------------------------------------------
[Date 17/04/2015 16:13:04:50]
AbsoluteUri 2: http://localhost:58452/vi/quan-he-co-dong/bao-cao-tai-chinh
-----------------------------------------------
[Date 17/04/2015 16:13:04:50]
AbsoluteUri: http://localhost:58452/vi/quan-he-co-dong/bao-cao-tai-chinh
-----------------------------------------------
[Date 17/04/2015 16:13:04:50]
AbsoluteUri 2: http://localhost:58452/vi/quan-he-co-dong/bao-cao-tai-chinh
-----------------------------------------------
[Date 17/04/2015 16:13:04:50]
AbsoluteUri: http://localhost:58452/vi/quan-he-co-dong/bao-cao-tai-chinh
-----------------------------------------------
[Date 17/04/2015 16:13:04:49]
AbsoluteUri 2: http://localhost:58452/vi/quan-he-co-dong/bao-cao-tai-chinh
-----------------------------------------------
[Date 17/04/2015 16:13:04:49]
AbsoluteUri: http://localhost:58452/vi/quan-he-co-dong/bao-cao-tai-chinh
-----------------------------------------------
[Date 17/04/2015 16:13:04:49]
AbsoluteUri 2: http://localhost:58452/vi/quan-he-co-dong/bao-cao-tai-chinh
-----------------------------------------------
[Date 17/04/2015 16:13:04:49]
AbsoluteUri: http://localhost:58452/vi/quan-he-co-dong/bao-cao-tai-chinh
-----------------------------------------------
[Date 17/04/2015 16:12:44:50]
AbsoluteUri 2: http://localhost:58452/
-----------------------------------------------
[Date 17/04/2015 16:12:44:50]
AbsoluteUri: http://localhost:58452/
-----------------------------------------------
[Date 17/04/2015 16:12:44:50]
AbsoluteUri 2: http://localhost:58452/
-----------------------------------------------
[Date 17/04/2015 16:12:44:50]
AbsoluteUri: http://localhost:58452/
-----------------------------------------------
[Date 17/04/2015 16:12:44:50]
AbsoluteUri 2: http://localhost:58452/
-----------------------------------------------
[Date 17/04/2015 16:12:44:50]
AbsoluteUri: http://localhost:58452/
-----------------------------------------------
[Date 17/04/2015 16:12:44:16]
AbsoluteUri 2: http://localhost:58452/
-----------------------------------------------
[Date 17/04/2015 16:12:44:16]
AbsoluteUri: http://localhost:58452/
-----------------------------------------------
[Date 17/04/2015 16:12:44:16]
AbsoluteUri 2: http://localhost:58452/
-----------------------------------------------
[Date 17/04/2015 16:12:44:16]
AbsoluteUri: http://localhost:58452/
-----------------------------------------------
[Date 17/04/2015 16:12:44:16]
AbsoluteUri 2: http://localhost:58452/
-----------------------------------------------
[Date 17/04/2015 16:12:44:15]
AbsoluteUri: http://localhost:58452/
-----------------------------------------------
[Date 17/04/2015 16:12:44:15]
AbsoluteUri 2: http://localhost:58452/
-----------------------------------------------
[Date 17/04/2015 16:12:44:15]
AbsoluteUri: http://localhost:58452/
-----------------------------------------------
[Date 17/04/2015 16:12:43:91]
AbsoluteUri 2: http://localhost:58452/
-----------------------------------------------
[Date 17/04/2015 16:12:43:91]
AbsoluteUri: http://localhost:58452/
-----------------------------------------------
[Date 17/04/2015 16:12:43:91]
AbsoluteUri 2: http://localhost:58452/
-----------------------------------------------
[Date 17/04/2015 16:12:43:91]
AbsoluteUri: http://localhost:58452/
-----------------------------------------------
[Date 17/04/2015 16:12:42:47]
AbsoluteUri 2: http://localhost:58452/
-----------------------------------------------
[Date 17/04/2015 16:12:42:47]
AbsoluteUri: http://localhost:58452/
-----------------------------------------------
[Date 17/04/2015 16:12:42:47]
AbsoluteUri 2: http://localhost:58452/
-----------------------------------------------
[Date 17/04/2015 16:12:42:47]
AbsoluteUri: http://localhost:58452/
-----------------------------------------------
[Date 17/04/2015 16:12:42:47]
AbsoluteUri 2: http://localhost:58452/
-----------------------------------------------
[Date 17/04/2015 16:12:42:47]
AbsoluteUri: http://localhost:58452/
-----------------------------------------------
[Date 17/04/2015 16:12:42:47]
AbsoluteUri 2: http://localhost:58452/
-----------------------------------------------
[Date 17/04/2015 16:12:42:47]
AbsoluteUri: http://localhost:58452/
-----------------------------------------------
[Date 17/04/2015 16:12:42:46]
AbsoluteUri 2: http://localhost:58452/
-----------------------------------------------
[Date 17/04/2015 16:12:42:46]
AbsoluteUri: http://localhost:58452/
-----------------------------------------------
[Date 17/04/2015 16:12:42:46]
AbsoluteUri 2: http://localhost:58452/
-----------------------------------------------
[Date 17/04/2015 16:12:42:46]
AbsoluteUri: http://localhost:58452/
-----------------------------------------------
[Date 17/04/2015 16:12:42:46]
AbsoluteUri 2: http://localhost:58452/
-----------------------------------------------
[Date 17/04/2015 16:12:42:46]
AbsoluteUri: http://localhost:58452/
-----------------------------------------------
[Date 17/04/2015 16:12:42:46]
AbsoluteUri 2: http://localhost:58452/
-----------------------------------------------
[Date 17/04/2015 16:12:42:46]
AbsoluteUri: http://localhost:58452/
-----------------------------------------------
[Date 17/04/2015 16:12:42:46]
AbsoluteUri 2: http://localhost:58452/
-----------------------------------------------
[Date 17/04/2015 16:12:42:46]
AbsoluteUri: http://localhost:58452/
-----------------------------------------------
[Date 17/04/2015 16:12:42:46]
AbsoluteUri 2: http://localhost:58452/
-----------------------------------------------
[Date 17/04/2015 16:12:42:46]
AbsoluteUri: http://localhost:58452/
-----------------------------------------------
[Date 17/04/2015 16:12:42:46]
AbsoluteUri 2: http://localhost:58452/
-----------------------------------------------
[Date 17/04/2015 16:12:42:46]
AbsoluteUri: http://localhost:58452/
-----------------------------------------------
[Date 17/04/2015 16:12:42:46]
AbsoluteUri 2: http://localhost:58452/
-----------------------------------------------
[Date 17/04/2015 16:12:42:46]
AbsoluteUri: http://localhost:58452/
-----------------------------------------------
[Date 17/04/2015 15:53:24:59]
AbsoluteUri 2: http://localhost:58452/admincp/article?category=64
-----------------------------------------------
[Date 17/04/2015 15:53:24:59]
AbsoluteUri: http://localhost:58452/admincp/article?category=64
-----------------------------------------------
[Date 17/04/2015 15:47:13:19]
AbsoluteUri 2: http://localhost:58452/admincp/article?category=64
-----------------------------------------------
[Date 17/04/2015 15:47:06:69]
AbsoluteUri: http://localhost:58452/admincp/article?category=64
-----------------------------------------------
[Date 17/04/2015 15:35:27:31]
AbsoluteUri 2: http://localhost:58452/admincp/article/update/234?category=64
-----------------------------------------------
[Date 17/04/2015 15:35:27:31]
AbsoluteUri: http://localhost:58452/admincp/article/update/234?category=64
-----------------------------------------------
[Date 17/04/2015 15:35:26:71]
AbsoluteUri 2: http://localhost:58452/admincp/article/update/234?category=64
-----------------------------------------------
[Date 17/04/2015 15:35:26:71]
AbsoluteUri: http://localhost:58452/admincp/article/update/234?category=64
-----------------------------------------------
[Date 17/04/2015 15:34:45:81]
AbsoluteUri 2: http://localhost:58452/admincp/article?category=64
-----------------------------------------------
[Date 17/04/2015 15:34:45:81]
AbsoluteUri: http://localhost:58452/admincp/article?category=64
-----------------------------------------------
[Date 17/04/2015 15:34:38:33]
AbsoluteUri 2: http://localhost:58452/admincp/article/update/235?category=64
-----------------------------------------------
[Date 17/04/2015 15:34:38:33]
AbsoluteUri: http://localhost:58452/admincp/article/update/235?category=64
-----------------------------------------------
[Date 17/04/2015 15:34:37:55]
AbsoluteUri 2: http://localhost:58452/admincp/article/update/235?category=64
-----------------------------------------------
[Date 17/04/2015 15:34:37:55]
AbsoluteUri: http://localhost:58452/admincp/article/update/235?category=64
-----------------------------------------------
[Date 17/04/2015 15:33:22:16]
AbsoluteUri 2: http://localhost:58452/admincp/article?category=64
-----------------------------------------------
[Date 17/04/2015 15:33:22:16]
AbsoluteUri: http://localhost:58452/admincp/article?category=64
-----------------------------------------------
[Date 17/04/2015 15:33:05:72]
AbsoluteUri 2: http://localhost:58452/admincp/article?category=56
-----------------------------------------------
[Date 17/04/2015 15:33:05:72]
AbsoluteUri: http://localhost:58452/admincp/article?category=56
-----------------------------------------------
[Date 17/04/2015 15:32:54:10]
AbsoluteUri 2: http://localhost:58452/admincp/AccountGroups
-----------------------------------------------
[Date 17/04/2015 15:32:54:10]
AbsoluteUri: http://localhost:58452/admincp/AccountGroups
-----------------------------------------------
[Date 17/04/2015 15:31:51:01]
AbsoluteUri 2: http://localhost:58452/vi/quan-he-co-dong/bao-cao-tai-chinh
-----------------------------------------------
[Date 17/04/2015 15:31:51:01]
AbsoluteUri: http://localhost:58452/vi/quan-he-co-dong/bao-cao-tai-chinh
-----------------------------------------------
[Date 17/04/2015 15:31:51:01]
AbsoluteUri 2: http://localhost:58452/vi/quan-he-co-dong/bao-cao-tai-chinh
-----------------------------------------------
[Date 17/04/2015 15:31:51:01]
AbsoluteUri: http://localhost:58452/vi/quan-he-co-dong/bao-cao-tai-chinh
-----------------------------------------------
[Date 17/04/2015 15:31:51:01]
AbsoluteUri 2: http://localhost:58452/vi/quan-he-co-dong/bao-cao-tai-chinh
-----------------------------------------------
[Date 17/04/2015 15:31:51:00]
AbsoluteUri: http://localhost:58452/vi/quan-he-co-dong/bao-cao-tai-chinh
-----------------------------------------------
[Date 17/04/2015 15:31:51:00]
AbsoluteUri 2: http://localhost:58452/vi/quan-he-co-dong/bao-cao-tai-chinh
-----------------------------------------------
[Date 17/04/2015 15:31:50:99]
AbsoluteUri: http://localhost:58452/vi/quan-he-co-dong/bao-cao-tai-chinh
-----------------------------------------------
[Date 17/04/2015 15:31:50:99]
AbsoluteUri 2: http://localhost:58452/vi/quan-he-co-dong/bao-cao-tai-chinh
-----------------------------------------------
[Date 17/04/2015 15:31:50:97]
AbsoluteUri: http://localhost:58452/vi/quan-he-co-dong/bao-cao-tai-chinh
-----------------------------------------------
[Date 17/04/2015 15:31:50:97]
AbsoluteUri 2: http://localhost:58452/vi/quan-he-co-dong/bao-cao-tai-chinh
-----------------------------------------------
[Date 17/04/2015 15:31:50:97]
AbsoluteUri: http://localhost:58452/vi/quan-he-co-dong/bao-cao-tai-chinh
-----------------------------------------------
[Date 17/04/2015 15:31:50:97]
AbsoluteUri 2: http://localhost:58452/vi/quan-he-co-dong/bao-cao-tai-chinh
-----------------------------------------------
[Date 17/04/2015 15:31:50:97]
AbsoluteUri: http://localhost:58452/vi/quan-he-co-dong/bao-cao-tai-chinh
-----------------------------------------------
[Date 17/04/2015 15:31:50:97]
AbsoluteUri 2: http://localhost:58452/vi/quan-he-co-dong/bao-cao-tai-chinh
-----------------------------------------------
[Date 17/04/2015 15:31:50:97]
AbsoluteUri: http://localhost:58452/vi/quan-he-co-dong/bao-cao-tai-chinh
-----------------------------------------------
[Date 17/04/2015 15:31:50:97]
AbsoluteUri 2: http://localhost:58452/vi/quan-he-co-dong/bao-cao-tai-chinh
-----------------------------------------------
[Date 17/04/2015 15:31:50:97]
AbsoluteUri: http://localhost:58452/vi/quan-he-co-dong/bao-cao-tai-chinh
-----------------------------------------------
[Date 17/04/2015 15:31:06:63]
AbsoluteUri 2: http://localhost:58452/
-----------------------------------------------
[Date 17/04/2015 15:31:06:63]
AbsoluteUri: http://localhost:58452/
-----------------------------------------------
[Date 17/04/2015 15:31:06:63]
AbsoluteUri 2: http://localhost:58452/
-----------------------------------------------
[Date 17/04/2015 15:31:06:63]
AbsoluteUri: http://localhost:58452/
-----------------------------------------------
[Date 17/04/2015 15:31:06:63]
AbsoluteUri 2: http://localhost:58452/
-----------------------------------------------
[Date 17/04/2015 15:31:06:63]
AbsoluteUri: http://localhost:58452/
-----------------------------------------------
[Date 17/04/2015 15:31:06:32]
AbsoluteUri 2: http://localhost:58452/
-----------------------------------------------
[Date 17/04/2015 15:31:06:32]
AbsoluteUri: http://localhost:58452/
-----------------------------------------------
[Date 17/04/2015 15:31:06:32]
AbsoluteUri 2: http://localhost:58452/
-----------------------------------------------
[Date 17/04/2015 15:31:06:32]
AbsoluteUri: http://localhost:58452/
-----------------------------------------------
[Date 17/04/2015 15:31:06:32]
AbsoluteUri 2: http://localhost:58452/
-----------------------------------------------
[Date 17/04/2015 15:31:06:32]
AbsoluteUri: http://localhost:58452/
-----------------------------------------------
[Date 17/04/2015 15:31:06:31]
AbsoluteUri 2: http://localhost:58452/
-----------------------------------------------
[Date 17/04/2015 15:31:06:31]
AbsoluteUri: http://localhost:58452/
-----------------------------------------------
[Date 17/04/2015 15:31:06:03]
AbsoluteUri 2: http://localhost:58452/
-----------------------------------------------
[Date 17/04/2015 15:31:06:03]
AbsoluteUri: http://localhost:58452/
-----------------------------------------------
[Date 17/04/2015 15:31:06:02]
AbsoluteUri 2: http://localhost:58452/
-----------------------------------------------
[Date 17/04/2015 15:31:06:02]
AbsoluteUri: http://localhost:58452/
-----------------------------------------------
[Date 17/04/2015 15:31:04:70]
AbsoluteUri 2: http://localhost:58452/
-----------------------------------------------
[Date 17/04/2015 15:31:04:70]
AbsoluteUri: http://localhost:58452/
-----------------------------------------------
[Date 17/04/2015 15:31:04:70]
AbsoluteUri 2: http://localhost:58452/
-----------------------------------------------
[Date 17/04/2015 15:31:04:70]
AbsoluteUri: http://localhost:58452/
-----------------------------------------------
[Date 17/04/2015 15:31:04:70]
AbsoluteUri 2: http://localhost:58452/
-----------------------------------------------
[Date 17/04/2015 15:31:04:70]
AbsoluteUri: http://localhost:58452/
-----------------------------------------------
[Date 17/04/2015 15:31:04:70]
AbsoluteUri 2: http://localhost:58452/
-----------------------------------------------
[Date 17/04/2015 15:31:04:70]
AbsoluteUri: http://localhost:58452/
-----------------------------------------------
[Date 17/04/2015 15:31:04:70]
AbsoluteUri 2: http://localhost:58452/
-----------------------------------------------
[Date 17/04/2015 15:31:04:70]
AbsoluteUri: http://localhost:58452/
-----------------------------------------------
[Date 17/04/2015 15:31:04:70]
AbsoluteUri 2: http://localhost:58452/
-----------------------------------------------
[Date 17/04/2015 15:31:04:70]
AbsoluteUri: http://localhost:58452/
-----------------------------------------------
[Date 17/04/2015 15:31:04:70]
AbsoluteUri 2: http://localhost:58452/
-----------------------------------------------
[Date 17/04/2015 15:31:04:70]
AbsoluteUri: http://localhost:58452/
-----------------------------------------------
[Date 17/04/2015 15:31:04:70]
AbsoluteUri 2: http://localhost:58452/
-----------------------------------------------
[Date 17/04/2015 15:31:04:68]
AbsoluteUri: http://localhost:58452/
-----------------------------------------------
[Date 17/04/2015 15:31:04:68]
AbsoluteUri 2: http://localhost:58452/
-----------------------------------------------
[Date 17/04/2015 15:31:04:68]
AbsoluteUri: http://localhost:58452/
-----------------------------------------------
[Date 17/04/2015 15:31:04:68]
AbsoluteUri 2: http://localhost:58452/
-----------------------------------------------
[Date 17/04/2015 15:31:04:68]
AbsoluteUri: http://localhost:58452/
-----------------------------------------------
[Date 17/04/2015 15:31:04:68]
AbsoluteUri 2: http://localhost:58452/
-----------------------------------------------
[Date 17/04/2015 15:31:04:68]
AbsoluteUri: http://localhost:58452/
-----------------------------------------------
[Date 17/04/2015 15:31:04:68]
AbsoluteUri 2: http://localhost:58452/
-----------------------------------------------
[Date 17/04/2015 15:31:04:68]
AbsoluteUri: http://localhost:58452/
-----------------------------------------------
