[Date 27/03/2015 17:26:30:56]
   at WizardCMS.Helpers.StringHelper.field_content(Dictionary`2 ContentTranslates, String field, Boolean reverse) in C:\Users\MrPeo\Desktop\WizardCMS\WizardCMS\Helpers\StringHelper.cs:line 546
-----------------------------------------------
[Date 27/03/2015 17:26:28:19]
   at WizardCMS.Helpers.StringHelper.field_content(Dictionary`2 ContentTranslates, String field, Boolean reverse) in C:\Users\MrPeo\Desktop\WizardCMS\WizardCMS\Helpers\StringHelper.cs:line 546
-----------------------------------------------
[Date 27/03/2015 17:26:25:26]
   at WizardCMS.Helpers.StringHelper.field_content(Dictionary`2 ContentTranslates, String field, Boolean reverse) in C:\Users\MrPeo\Desktop\WizardCMS\WizardCMS\Helpers\StringHelper.cs:line 546
-----------------------------------------------
[Date 27/03/2015 17:16:52:91]
   at WizardCMS.Helpers.StringHelper.field_content(Dictionary`2 ContentTranslates, String field, Boolean reverse) in C:\Users\MrPeo\Desktop\WizardCMS\WizardCMS\Helpers\StringHelper.cs:line 546
-----------------------------------------------
[Date 27/03/2015 17:16:49:96]
   at WizardCMS.Helpers.StringHelper.field_content(Dictionary`2 ContentTranslates, String field, Boolean reverse) in C:\Users\MrPeo\Desktop\WizardCMS\WizardCMS\Helpers\StringHelper.cs:line 546
-----------------------------------------------
[Date 27/03/2015 17:16:47:57]
   at WizardCMS.Helpers.StringHelper.field_content(Dictionary`2 ContentTranslates, String field, Boolean reverse) in C:\Users\MrPeo\Desktop\WizardCMS\WizardCMS\Helpers\StringHelper.cs:line 546
-----------------------------------------------
[Date 27/03/2015 17:16:44:91]
   at WizardCMS.Helpers.StringHelper.field_content(Dictionary`2 ContentTranslates, String field, Boolean reverse) in C:\Users\MrPeo\Desktop\WizardCMS\WizardCMS\Helpers\StringHelper.cs:line 546
-----------------------------------------------
[Date 27/03/2015 17:16:42:09]
   at WizardCMS.Helpers.StringHelper.field_content(Dictionary`2 ContentTranslates, String field, Boolean reverse) in C:\Users\MrPeo\Desktop\WizardCMS\WizardCMS\Helpers\StringHelper.cs:line 546
-----------------------------------------------
[Date 27/03/2015 17:01:31:89]
   at WizardCMS.Helpers.StringHelper.field_content(Dictionary`2 ContentTranslates, String field, Boolean reverse) in C:\Users\MrPeo\Desktop\WizardCMS\WizardCMS\Helpers\StringHelper.cs:line 546
-----------------------------------------------
[Date 27/03/2015 17:01:30:36]
   at WizardCMS.Helpers.StringHelper.field_content(Dictionary`2 ContentTranslates, String field, Boolean reverse) in C:\Users\MrPeo\Desktop\WizardCMS\WizardCMS\Helpers\StringHelper.cs:line 546
-----------------------------------------------
[Date 27/03/2015 17:01:26:42]
   at WizardCMS.Helpers.StringHelper.field_content(Dictionary`2 ContentTranslates, String field, Boolean reverse) in C:\Users\MrPeo\Desktop\WizardCMS\WizardCMS\Helpers\StringHelper.cs:line 546
-----------------------------------------------
[Date 27/03/2015 17:00:28:21]
   at WizardCMS.Helpers.StringHelper.field_content(Dictionary`2 ContentTranslates, String field, Boolean reverse) in C:\Users\MrPeo\Desktop\WizardCMS\WizardCMS\Helpers\StringHelper.cs:line 546
-----------------------------------------------
[Date 27/03/2015 10:30:23:33]
   at WizardCMS.Helpers.StringHelper.field_content(Dictionary`2 ContentTranslates, String field, Boolean reverse) in C:\Users\MrPeo\Desktop\WizardCMS\WizardCMS\Helpers\StringHelper.cs:line 546
-----------------------------------------------
[Date 27/03/2015 09:48:59:01]
   at WizardCMS.Helpers.StringHelper.field_content(Dictionary`2 ContentTranslates, String field, Boolean reverse) in C:\Users\MrPeo\Desktop\WizardCMS\WizardCMS\Helpers\StringHelper.cs:line 546
-----------------------------------------------
[Date 27/03/2015 09:48:01:80]
   at WizardCMS.Helpers.StringHelper.field_content(Dictionary`2 ContentTranslates, String field, Boolean reverse) in C:\Users\MrPeo\Desktop\WizardCMS\WizardCMS\Helpers\StringHelper.cs:line 546
-----------------------------------------------
