[Date 30/03/2015 12:15:14:04]
   at WizardCMS.Helpers.StringHelper.field_content(Dictionary`2 ContentTranslates, String field, Boolean reverse) in C:\Users\MrPeo\Desktop\WizardCMS\WizardCMS\Helpers\StringHelper.cs:line 548
-----------------------------------------------
[Date 30/03/2015 10:45:17:16]
   at WizardCMS.Helpers.StringHelper.field_content(Dictionary`2 ContentTranslates, String field, Boolean reverse) in C:\Users\MrPeo\Desktop\WizardCMS\WizardCMS\Helpers\StringHelper.cs:line 548
-----------------------------------------------
