<svg width="746" height="526" xmlns="http://www.w3.org/2000/svg">
 <!-- Created with SVG-edit - http://svg-edit.googlecode.com/ -->
 <g>
  <title>Layer 1</title>
  <rect id="svg_1" height="52" width="184" y="-0.000001" x="280.500005" stroke-linecap="null" stroke-linejoin="null" stroke="#9a161c" fill="#d71921" stroke-width="2"/>
  <text font-weight="normal" xml:space="preserve" text-anchor="middle" font-family="robotomedium" font-size="14" id="svg_2" y="30.492782" x="371.998932" stroke-linecap="null" stroke-linejoin="null" stroke-width="0" stroke="#9a161c" fill="#ffffff">ĐẠI HỘI ĐỒNG CỔ ĐÔNG</text>
  <rect height="52" width="184" y="157.999999" x="281.500005" stroke-linecap="null" stroke-linejoin="null" stroke="#9a161c" fill="#d71921" stroke-width="2" id="svg_9"/>
  <text font-weight="normal" xml:space="preserve" text-anchor="middle" font-family="robotomedium" font-size="14" y="188.500595" x="373.498932" stroke-linecap="null" stroke-linejoin="null" stroke-width="0" stroke="#9a161c" fill="#ffffff" id="svg_10">BAN TỔNG GIÁM ĐỐC</text>
  <rect height="52" width="184" y="40.999999" x="0" stroke-linecap="null" stroke-linejoin="null" stroke="#0066b3" fill="#76c4f1" stroke-width="2" id="svg_12"/>
  <text font-weight="normal" xml:space="preserve" text-anchor="middle" font-family="robotomedium" font-size="14" y="71.492782" x="91.998932" stroke-linecap="null" stroke-linejoin="null" stroke-width="0" stroke="#9a161c" fill="#ffffff" id="svg_13">BAN KIỂM SOÁT</text>
  <rect height="52" width="184" y="78.999999" x="561" stroke-linecap="null" stroke-linejoin="null" stroke="#0066b3" fill="#76c4f1" stroke-width="2" id="svg_16"/>
  <text font-weight="normal" xml:space="preserve" text-anchor="middle" font-family="robotomedium" font-size="14" y="109.492782" x="652.998932" stroke-linecap="null" stroke-linejoin="null" stroke-width="0" stroke="#9a161c" fill="#ffffff" id="svg_17">HỘI ĐỒNG ĐẦU TƯ</text>
  <rect height="52" width="184" y="157.999999" x="561" stroke-linecap="null" stroke-linejoin="null" stroke="#0066b3" fill="#76c4f1" stroke-width="2" id="svg_20"/>
  <text font-weight="normal" xml:space="preserve" text-anchor="middle" font-family="robotomedium" font-size="14" y="188.492782" x="652.998932" stroke-linecap="null" stroke-linejoin="null" stroke-width="0" stroke="#9a161c" fill="#ffffff" id="svg_21">BAN TRỢ LÝ</text>
  <rect height="52" width="184" y="78.999999" x="281.500005" stroke-linecap="null" stroke-linejoin="null" stroke="#9a161c" fill="#d71921" stroke-width="2" id="svg_6"/>
  <text font-weight="normal" xml:space="preserve" text-anchor="middle" font-family="robotomedium" font-size="14" y="109.492783" x="373.506745" stroke-linecap="null" stroke-linejoin="null" stroke-width="0" stroke="#9a161c" fill="#ffffff" id="svg_8">HỘI ĐỒNG QUẢN TRỊ</text>
  <rect height="52" width="154" y="270.499999" x="0.5" stroke-linecap="null" stroke-linejoin="null" stroke="#76c4f1" fill="#0066b3" stroke-width="2" id="svg_26"/>
  <text font-weight="normal" xml:space="preserve" text-anchor="middle" font-family="robotomedium" font-size="14" y="300.500594" x="78.006744" stroke-linecap="null" stroke-linejoin="null" stroke-width="0" stroke="#9a161c" fill="#ffffff" id="svg_27">BAN PHÁP CHẾ</text>
  <rect height="52" width="154" y="271" x="190" stroke-linecap="null" stroke-linejoin="null" stroke="#76c4f1" fill="#0066b3" stroke-width="2" id="svg_30"/>
  <text font-weight="normal" xml:space="preserve" text-anchor="middle" font-family="robotomedium" font-size="14" y="294.742782" x="267.006744" stroke-linecap="null" stroke-linejoin="null" stroke-width="0" stroke="#9a161c" fill="#ffffff" id="svg_31">BAN KIỂM SOÁT</text>
  <text font-weight="normal" xml:space="preserve" text-anchor="middle" font-family="robotomedium" font-size="14" y="312.250594" x="266.998932" stroke-linecap="null" stroke-linejoin="null" stroke-width="0" stroke="#9a161c" fill="#ffffff" id="svg_32">NỘI BỘ</text>
  <rect height="52" width="154" y="270.999999" x="394" stroke-linecap="null" stroke-linejoin="null" stroke="#76c4f1" fill="#0066b3" stroke-width="2" id="svg_33"/>
  <text font-weight="normal" xml:space="preserve" text-anchor="middle" font-family="robotomedium" font-size="14" y="294.742782" x="471.006744" stroke-linecap="null" stroke-linejoin="null" stroke-width="0" stroke="#9a161c" fill="#ffffff" id="svg_34">PHÒNG QUẢN TRỊ</text>
  <text font-weight="normal" xml:space="preserve" text-anchor="middle" font-family="robotomedium" font-size="14" y="312.250594" x="470.998932" stroke-linecap="null" stroke-linejoin="null" stroke-width="0" stroke="#9a161c" fill="#ffffff" id="svg_35">RỦI RO</text>
  <g id="svg_83">
   <rect height="72" width="124" y="345.999999" x="416" stroke-linecap="null" stroke-linejoin="null" stroke="#0066b3" fill="#f3f3f3" stroke-width="2" id="svg_43"/>
   <text font-weight="normal" xml:space="preserve" text-anchor="middle" font-family="robotomedium" font-size="14" y="378.750594" x="477.498932" stroke-linecap="null" stroke-linejoin="null" stroke-width="0" stroke="#9a161c" fill="#0066b3" id="svg_81">CHI NHÁNH</text>
   <text font-weight="normal" xml:space="preserve" text-anchor="middle" font-family="robotomedium" font-size="14" y="397.742782" x="477.998932" stroke-linecap="null" stroke-linejoin="null" stroke-width="0" stroke="#9a161c" fill="#0066b3" id="svg_82">PHÒNG G.DỊCH</text>
  </g>
  <g id="svg_114">
   <rect height="62" width="98" y="462.999999" stroke-linecap="null" stroke-linejoin="null" stroke="#0066b3" fill="#f3f3f3" stroke-width="2" id="svg_111"/>
   <text font-weight="normal" xml:space="preserve" text-anchor="middle" font-family="robotomedium" font-size="12" y="491.742782" x="51.006744" stroke-linecap="null" stroke-linejoin="null" stroke-width="0" stroke="#9a161c" fill="#0066b3" id="svg_112">KHỐI</text>
   <text font-weight="normal" xml:space="preserve" text-anchor="middle" font-family="robotomedium" font-size="12" y="507.750594" x="51.498932" stroke-linecap="null" stroke-linejoin="null" stroke-width="0" stroke="#9a161c" fill="#0066b3" id="svg_113">TÀI CHÍNH</text>
  </g>
  <g id="svg_115">
   <rect height="62" width="98" y="462.999999" x="108" stroke-linecap="null" stroke-linejoin="null" stroke="#0066b3" fill="#f3f3f3" stroke-width="2" id="svg_58"/>
   <text font-weight="normal" xml:space="preserve" text-anchor="middle" font-family="robotomedium" font-size="12" y="488.742782" x="155.498932" stroke-linecap="null" stroke-linejoin="null" stroke-width="0" stroke="#9a161c" fill="#0066b3" id="svg_59">KHỐI</text>
   <text font-weight="normal" xml:space="preserve" text-anchor="middle" font-family="robotomedium" font-size="12" y="501.250594" x="156.498932" stroke-linecap="null" stroke-linejoin="null" stroke-width="0" stroke="#9a161c" fill="#0066b3" id="svg_60">NHÂN SỰ</text>
   <text font-weight="normal" xml:space="preserve" text-anchor="middle" font-family="robotomedium" font-size="12" y="515.492782" x="156.498932" stroke-linecap="null" stroke-linejoin="null" stroke-width="0" stroke="#9a161c" fill="#0066b3" id="svg_76">TỔNG HỢP</text>
  </g>
  <g id="svg_116">
   <rect height="62" width="98" y="462.999999" x="215" stroke-linecap="null" stroke-linejoin="null" stroke="#0066b3" fill="#f3f3f3" stroke-width="2" id="svg_84"/>
   <text font-weight="normal" xml:space="preserve" text-anchor="middle" font-family="robotomedium" font-size="12" y="485.242782" x="264.006744" stroke-linecap="null" stroke-linejoin="null" stroke-width="0" stroke="#9a161c" fill="#0066b3" id="svg_85">TRUNG TÂM</text>
   <text font-weight="normal" xml:space="preserve" text-anchor="middle" font-family="robotomedium" font-size="12" y="499.250594" x="263.998932" stroke-linecap="null" stroke-linejoin="null" stroke-width="0" stroke="#9a161c" fill="#0066b3" id="svg_86">CÔNG NGHỆ</text>
   <text font-weight="normal" xml:space="preserve" text-anchor="middle" font-family="robotomedium" font-size="12" y="513.992782" x="263.998932" stroke-linecap="null" stroke-linejoin="null" stroke-width="0" stroke="#9a161c" fill="#0066b3" id="svg_87">THÔNG TIN</text>
  </g>
  <g id="svg_117">
   <rect height="62" width="98" y="462.999999" x="323" stroke-linecap="null" stroke-linejoin="null" stroke="#0066b3" fill="#f3f3f3" stroke-width="2" id="svg_88"/>
   <text font-weight="normal" xml:space="preserve" text-anchor="middle" font-family="robotomedium" font-size="12" y="485.242782" x="371.998932" stroke-linecap="null" stroke-linejoin="null" stroke-width="0" stroke="#9a161c" fill="#0066b3" id="svg_89">KHỐI</text>
   <text font-weight="normal" xml:space="preserve" text-anchor="middle" font-family="robotomedium" font-size="12" y="499.750594" x="371.998932" stroke-linecap="null" stroke-linejoin="null" stroke-width="0" stroke="#9a161c" fill="#0066b3" id="svg_90">DỊCH VỤ</text>
   <text font-weight="normal" xml:space="preserve" text-anchor="middle" font-family="robotomedium" font-size="12" y="514.492782" x="371.998932" stroke-linecap="null" stroke-linejoin="null" stroke-width="0" stroke="#9a161c" fill="#0066b3" id="svg_91">CHỨNG KHOÁN</text>
  </g>
  <g id="svg_118">
   <rect height="62" width="98" y="462.999996" x="430" stroke-linecap="null" stroke-linejoin="null" stroke="#0066b3" fill="#f3f3f3" stroke-width="2" id="svg_92"/>
   <text font-weight="normal" xml:space="preserve" text-anchor="middle" font-family="robotomedium" font-size="12" y="491.742779" x="481.006744" stroke-linecap="null" stroke-linejoin="null" stroke-width="0" stroke="#9a161c" fill="#0066b3" id="svg_93">KHỐI</text>
   <text font-weight="normal" xml:space="preserve" text-anchor="middle" font-family="robotomedium" font-size="12" y="507.750591" x="481.498932" stroke-linecap="null" stroke-linejoin="null" stroke-width="0" stroke="#9a161c" fill="#0066b3" id="svg_94">NGHIỆP VỤ</text>
  </g>
  <g id="svg_119">
   <rect height="62" width="98" y="462.999999" x="538" stroke-linecap="null" stroke-linejoin="null" stroke="#0066b3" fill="#f3f3f3" stroke-width="2" id="svg_95"/>
   <text font-weight="normal" xml:space="preserve" text-anchor="middle" font-family="robotomedium" font-size="12" y="486.242782" x="586.998932" stroke-linecap="null" stroke-linejoin="null" stroke-width="0" stroke="#9a161c" fill="#0066b3" id="svg_96">KHỐI DỊCH VỤ</text>
   <text font-weight="normal" xml:space="preserve" text-anchor="middle" font-family="robotomedium" font-size="12" y="500.750594" x="586.998932" stroke-linecap="null" stroke-linejoin="null" stroke-width="0" stroke="#9a161c" fill="#0066b3" id="svg_97">NGÂN HÀNG</text>
   <text font-weight="normal" xml:space="preserve" text-anchor="middle" font-family="robotomedium" font-size="12" y="514.992782" x="586.998932" stroke-linecap="null" stroke-linejoin="null" stroke-width="0" stroke="#9a161c" fill="#0066b3" id="svg_98">ĐẦU TƯ</text>
  </g>
  <g id="svg_120">
   <rect height="62" width="98" y="462.999999" x="643.644295" stroke-linecap="null" stroke-linejoin="null" stroke="#0066b3" fill="#f3f3f3" stroke-width="2" id="svg_103"/>
   <text font-weight="normal" xml:space="preserve" text-anchor="middle" font-family="robotomedium" font-size="12" y="490.742782" x="694.651039" stroke-linecap="null" stroke-linejoin="null" stroke-width="0" stroke="#9a161c" fill="#0066b3" id="svg_104">TRUNG TÂM</text>
   <text font-weight="normal" xml:space="preserve" text-anchor="middle" font-family="robotomedium" font-size="12" y="507.750594" x="695.143227" stroke-linecap="null" stroke-linejoin="null" stroke-width="0" stroke="#9a161c" fill="#0066b3" id="svg_105">NGHIÊN CỨU</text>
  </g>
  <g id="svg_121">
   <rect height="52" width="154" y="271.499999" x="591.000016" stroke-linecap="null" stroke-linejoin="null" stroke="#76c4f1" fill="#0066b3" stroke-width="2" id="svg_38"/>
   <text font-weight="normal" xml:space="preserve" text-anchor="middle" font-family="robotomedium" font-size="14" y="295.242782" x="668.00676" stroke-linecap="null" stroke-linejoin="null" stroke-width="0" stroke="#9a161c" fill="#ffffff" id="svg_39">HỘI ĐỒNG</text>
   <text font-weight="normal" xml:space="preserve" text-anchor="middle" font-family="robotomedium" font-size="14" y="312.750594" x="668.498948" stroke-linecap="null" stroke-linejoin="null" stroke-width="0" stroke="#9a161c" fill="#ffffff" id="svg_40">CHÍNH SÁCH</text>
  </g>
  <line id="svg_122" y2="65" x2="372" y1="65" x1="189" stroke-linecap="null" stroke-linejoin="null" stroke-width="2" stroke="#b2b2b2" fill="none"/>
  <line id="svg_123" y2="250" x2="667" y1="250" x1="77" stroke-linecap="null" stroke-linejoin="null" stroke-width="2" stroke="#b2b2b2" fill="none"/>
  <line id="svg_124" y2="442" x2="693" y1="442" x1="48" stroke-linecap="null" stroke-linejoin="null" stroke-width="2" stroke="#b2b2b2" fill="none"/>
  <line id="svg_126" y2="102" x2="552" y1="102" x1="470" stroke-linecap="null" stroke-linejoin="null" stroke-width="2" stroke="#b2b2b2" fill="none"/>
  <line id="svg_127" y2="182" x2="552" y1="182" x1="470.671141" stroke-linecap="null" stroke-linejoin="null" stroke-width="2" stroke="#b2b2b2" fill="none"/>
  <line id="svg_128" y2="72.355705" x2="372.5" y1="58.355705" x1="372.5" stroke-linecap="null" stroke-linejoin="null" stroke-width="2" stroke="#b2b2b2" fill="none"/>
  <line id="svg_129" y2="152.246098" x2="372.499986" y1="138.246098" x1="372.499986" stroke-linecap="null" stroke-linejoin="null" stroke-width="2" stroke="#b2b2b2" fill="none"/>
  <line id="svg_130" y2="457.436251" x2="373.171141" y1="215.436251" x1="373.171141" stroke-linecap="null" stroke-linejoin="null" stroke-width="2" stroke="#b2b2b2" fill="none"/>
  <line id="svg_131" y2="264" x2="77.500003" y1="249" x1="77.500003" stroke-linecap="null" stroke-linejoin="null" stroke-width="2" stroke="#b2b2b2" fill="none"/>
  <line id="svg_133" y2="264.671141" x2="267.000011" y1="249" x1="267.000011" stroke-linecap="null" stroke-linejoin="null" stroke-width="2" stroke="#b2b2b2" fill="none"/>
  <line id="svg_134" y2="264.83557" x2="471.000011" y1="249.164429" x1="471.000011" stroke-linecap="null" stroke-linejoin="null" stroke-width="2" stroke="#b2b2b2" fill="none"/>
  <line id="svg_135" y2="264.83557" x2="668.000011" y1="249.164429" x1="668.000011" stroke-linecap="null" stroke-linejoin="null" stroke-width="2" stroke="#b2b2b2" fill="none"/>
  <line id="svg_136" y2="457.33557" x2="49" y1="441.664429" x1="49" stroke-linecap="null" stroke-linejoin="null" stroke-width="2" stroke="#b2b2b2" fill="none"/>
  <line id="svg_137" y2="457.33557" x2="156.999996" y1="441.664429" x1="156.999996" stroke-linecap="null" stroke-linejoin="null" stroke-width="2" stroke="#b2b2b2" fill="none"/>
  <line id="svg_138" y2="457.33557" x2="264.000011" y1="441.664429" x1="264.000011" stroke-linecap="null" stroke-linejoin="null" stroke-width="2" stroke="#b2b2b2" fill="none"/>
  <line id="svg_139" y2="457.33557" x2="479.000011" y1="441.664429" x1="479.000011" stroke-linecap="null" stroke-linejoin="null" stroke-width="2" stroke="#b2b2b2" fill="none"/>
  <line id="svg_140" y2="457.33557" x2="587.000011" y1="441.664429" x1="587.000011" stroke-linecap="null" stroke-linejoin="null" stroke-width="2" stroke="#b2b2b2" fill="none"/>
  <line id="svg_141" y2="457.33557" x2="692.644298" y1="441.664429" x1="692.644298" stroke-linecap="null" stroke-linejoin="null" stroke-width="2" stroke="#b2b2b2" fill="none"/>
  <line id="svg_142" y2="382" x2="410" y1="382" x1="374" stroke-linecap="null" stroke-linejoin="null" stroke-width="2" stroke="#b2b2b2" fill="none"/>
 </g>
</svg>